EESchema Schematic File Version 2
LIBS:power
LIBS:device
LIBS:switches
LIBS:relays
LIBS:motors
LIBS:transistors
LIBS:conn
LIBS:linear
LIBS:regul
LIBS:74xx
LIBS:cmos4000
LIBS:adc-dac
LIBS:memory
LIBS:xilinx
LIBS:microcontrollers
LIBS:dsp
LIBS:microchip
LIBS:analog_switches
LIBS:motorola
LIBS:texas
LIBS:intel
LIBS:audio
LIBS:interface
LIBS:digital-audio
LIBS:philips
LIBS:display
LIBS:cypress
LIBS:siliconi
LIBS:opto
LIBS:atmel
LIBS:contrib
LIBS:valves
LIBS:ESP8266
LIBS:goof-cache
EELAYER 25 0
EELAYER END
$Descr A4 11693 8268
encoding utf-8
Sheet 1 1
Title ""
Date ""
Rev ""
Comp ""
Comment1 ""
Comment2 ""
Comment3 ""
Comment4 ""
$EndDescr
$Comp
L GND #PWR01
U 1 1 5B1AD3D6
P 4950 3100
F 0 "#PWR01" H 4950 2850 50  0001 C CNN
F 1 "GND" H 4950 2950 50  0000 C CNN
F 2 "" H 4950 3100 50  0001 C CNN
F 3 "" H 4950 3100 50  0001 C CNN
	1    4950 3100
	1    0    0    -1  
$EndComp
$Comp
L +3V3 #PWR02
U 1 1 5B1AD764
P 4950 1300
F 0 "#PWR02" H 4950 1150 50  0001 C CNN
F 1 "+3V3" H 4950 1440 50  0000 C CNN
F 2 "" H 4950 1300 50  0001 C CNN
F 3 "" H 4950 1300 50  0001 C CNN
	1    4950 1300
	1    0    0    -1  
$EndComp
Text GLabel 5850 2300 2    60   Input ~ 0
GPIO0
Text GLabel 5850 2200 2    60   Input ~ 0
GPIO4
Text GLabel 5850 2100 2    60   Input ~ 0
GPIO5
Text GLabel 5850 2000 2    60   Input ~ 0
RXD
Text GLabel 5850 1900 2    60   Input ~ 0
TXD
$Comp
L ESP-12 U1
U 1 1 5B1AD15E
P 4950 2200
F 0 "U1" H 4950 2100 50  0000 C CNN
F 1 "ESP-12" H 4950 2300 50  0000 C CNN
F 2 "ESP8266:ESP-12" H 4950 2200 50  0001 C CNN
F 3 "" H 4950 2200 50  0001 C CNN
	1    4950 2200
	1    0    0    -1  
$EndComp
Text GLabel 5850 2400 2    60   Input ~ 0
GPIO2
Text GLabel 5850 2500 2    60   Input ~ 0
GPIO15
Text GLabel 4050 1900 0    60   Input ~ 0
RESET
Text GLabel 4050 2000 0    60   Input ~ 0
ADC
Text GLabel 4050 2100 0    60   Input ~ 0
CH_PD
Text GLabel 4050 2200 0    60   Input ~ 0
GPIO16
Text GLabel 4050 2300 0    60   Input ~ 0
GPIO14
Text GLabel 4050 2400 0    60   Input ~ 0
GPIO12
Text GLabel 4050 2500 0    60   Input ~ 0
GPIO13
$Comp
L R R1
U 1 1 5B1ADADF
P 900 1950
F 0 "R1" V 980 1950 50  0000 C CNN
F 1 "R" V 900 1950 50  0000 C CNN
F 2 "Resistors_THT:R_Axial_DIN0204_L3.6mm_D1.6mm_P1.90mm_Vertical" V 830 1950 50  0001 C CNN
F 3 "" H 900 1950 50  0001 C CNN
	1    900  1950
	1    0    0    -1  
$EndComp
$Comp
L R R2
U 1 1 5B1ADB42
P 1700 1950
F 0 "R2" V 1780 1950 50  0000 C CNN
F 1 "R" V 1700 1950 50  0000 C CNN
F 2 "Resistors_THT:R_Axial_DIN0204_L3.6mm_D1.6mm_P1.90mm_Vertical" V 1630 1950 50  0001 C CNN
F 3 "" H 1700 1950 50  0001 C CNN
	1    1700 1950
	1    0    0    -1  
$EndComp
$Comp
L R R3
U 1 1 5B1ADB7B
P 2300 1950
F 0 "R3" V 2380 1950 50  0000 C CNN
F 1 "R" V 2300 1950 50  0000 C CNN
F 2 "Resistors_THT:R_Axial_DIN0204_L3.6mm_D1.6mm_P1.90mm_Vertical" V 2230 1950 50  0001 C CNN
F 3 "" H 2300 1950 50  0001 C CNN
	1    2300 1950
	1    0    0    -1  
$EndComp
$Comp
L R R4
U 1 1 5B1ADBB1
P 2550 1950
F 0 "R4" V 2630 1950 50  0000 C CNN
F 1 "R" V 2550 1950 50  0000 C CNN
F 2 "Resistors_THT:R_Axial_DIN0204_L3.6mm_D1.6mm_P1.90mm_Vertical" V 2480 1950 50  0001 C CNN
F 3 "" H 2550 1950 50  0001 C CNN
	1    2550 1950
	1    0    0    -1  
$EndComp
$Comp
L R R5
U 1 1 5B1ADBE1
P 2800 1950
F 0 "R5" V 2880 1950 50  0000 C CNN
F 1 "R" V 2800 1950 50  0000 C CNN
F 2 "Resistors_THT:R_Axial_DIN0204_L3.6mm_D1.6mm_P1.90mm_Vertical" V 2730 1950 50  0001 C CNN
F 3 "" H 2800 1950 50  0001 C CNN
	1    2800 1950
	1    0    0    -1  
$EndComp
$Comp
L GND #PWR03
U 1 1 5B1ADC1B
P 2800 2100
F 0 "#PWR03" H 2800 1850 50  0001 C CNN
F 1 "GND" H 2800 1950 50  0000 C CNN
F 2 "" H 2800 2100 50  0001 C CNN
F 3 "" H 2800 2100 50  0001 C CNN
	1    2800 2100
	1    0    0    -1  
$EndComp
$Comp
L +3V3 #PWR04
U 1 1 5B1ADC5C
P 2550 1800
F 0 "#PWR04" H 2550 1650 50  0001 C CNN
F 1 "+3V3" H 2550 1940 50  0000 C CNN
F 2 "" H 2550 1800 50  0001 C CNN
F 3 "" H 2550 1800 50  0001 C CNN
	1    2550 1800
	1    0    0    -1  
$EndComp
$Comp
L +3V3 #PWR05
U 1 1 5B1ADC91
P 2300 1800
F 0 "#PWR05" H 2300 1650 50  0001 C CNN
F 1 "+3V3" H 2300 1940 50  0000 C CNN
F 2 "" H 2300 1800 50  0001 C CNN
F 3 "" H 2300 1800 50  0001 C CNN
	1    2300 1800
	1    0    0    -1  
$EndComp
Text GLabel 2800 1800 1    60   Input ~ 0
GPIO15
Text GLabel 2550 2100 3    60   Input ~ 0
CH_PD
Text GLabel 2300 2100 3    60   Input ~ 0
GPIO2
$Comp
L +3V3 #PWR06
U 1 1 5B1ADE4E
P 1700 1450
F 0 "#PWR06" H 1700 1300 50  0001 C CNN
F 1 "+3V3" H 1700 1590 50  0000 C CNN
F 2 "" H 1700 1450 50  0001 C CNN
F 3 "" H 1700 1450 50  0001 C CNN
	1    1700 1450
	1    0    0    -1  
$EndComp
Wire Wire Line
	1700 1450 1700 1800
Text GLabel 1700 1650 2    60   Input ~ 0
RESET
Connection ~ 1700 1650
$Comp
L SW_Push SW2
U 1 1 5B1ADF5C
P 1700 2300
F 0 "SW2" H 1750 2400 50  0000 L CNN
F 1 "SW_Push" H 1700 2240 50  0000 C CNN
F 2 "Buttons_Switches_THT:SW_PUSH_6mm" H 1700 2500 50  0001 C CNN
F 3 "" H 1700 2500 50  0001 C CNN
	1    1700 2300
	0    -1   -1   0   
$EndComp
$Comp
L GND #PWR07
U 1 1 5B1AE002
P 1700 2500
F 0 "#PWR07" H 1700 2250 50  0001 C CNN
F 1 "GND" H 1700 2350 50  0000 C CNN
F 2 "" H 1700 2500 50  0001 C CNN
F 3 "" H 1700 2500 50  0001 C CNN
	1    1700 2500
	1    0    0    -1  
$EndComp
$Comp
L SW_Push SW1
U 1 1 5B1AE04C
P 1300 2300
F 0 "SW1" H 1350 2400 50  0000 L CNN
F 1 "SW_Push" H 1300 2240 50  0000 C CNN
F 2 "Buttons_Switches_THT:SW_PUSH_6mm" H 1300 2500 50  0001 C CNN
F 3 "" H 1300 2500 50  0001 C CNN
	1    1300 2300
	0    -1   -1   0   
$EndComp
$Comp
L GND #PWR08
U 1 1 5B1AE052
P 1300 2500
F 0 "#PWR08" H 1300 2250 50  0001 C CNN
F 1 "GND" H 1300 2350 50  0000 C CNN
F 2 "" H 1300 2500 50  0001 C CNN
F 3 "" H 1300 2500 50  0001 C CNN
	1    1300 2500
	1    0    0    -1  
$EndComp
Text GLabel 1300 2100 1    60   Input ~ 0
GPIO0
Text GLabel 900  2100 3    60   Input ~ 0
GPIO0
$Comp
L LED D1
U 1 1 5B1AE0EF
P 900 1650
F 0 "D1" H 900 1750 50  0000 C CNN
F 1 "LED" H 900 1550 50  0000 C CNN
F 2 "LEDs:LED_Rectangular_W3.0mm_H2.0mm" H 900 1650 50  0001 C CNN
F 3 "" H 900 1650 50  0001 C CNN
	1    900  1650
	0    -1   -1   0   
$EndComp
$Comp
L +3V3 #PWR09
U 1 1 5B1AE150
P 900 1500
F 0 "#PWR09" H 900 1350 50  0001 C CNN
F 1 "+3V3" H 900 1640 50  0000 C CNN
F 2 "" H 900 1500 50  0001 C CNN
F 3 "" H 900 1500 50  0001 C CNN
	1    900  1500
	1    0    0    -1  
$EndComp
$Comp
L D D3
U 1 1 5B1AE218
P 1800 3050
F 0 "D3" H 1800 3150 50  0000 C CNN
F 1 "D" H 1800 2950 50  0000 C CNN
F 2 "Diodes_THT:D_A-405_P2.54mm_Vertical_AnodeUp" H 1800 3050 50  0001 C CNN
F 3 "" H 1800 3050 50  0001 C CNN
	1    1800 3050
	1    0    0    -1  
$EndComp
$Comp
L D D4
U 1 1 5B1AE281
P 1800 3500
F 0 "D4" H 1800 3600 50  0000 C CNN
F 1 "D" H 1800 3400 50  0000 C CNN
F 2 "Diodes_THT:D_A-405_P2.54mm_Vertical_AnodeUp" H 1800 3500 50  0001 C CNN
F 3 "" H 1800 3500 50  0001 C CNN
	1    1800 3500
	1    0    0    -1  
$EndComp
Text GLabel 1950 3050 2    60   Input ~ 0
RESET
Text GLabel 1950 3500 2    60   Input ~ 0
RXD
Text GLabel 1650 3500 0    60   Input ~ 0
RXD_5V
Text GLabel 1650 3050 0    60   Input ~ 0
RESET_5V
$Comp
L Conn_01x06 J2
U 1 1 5B1AE4DD
P 3700 4400
F 0 "J2" H 3700 4700 50  0000 C CNN
F 1 "Conn_01x06" H 3700 4000 50  0000 C CNN
F 2 "Pin_Headers:Pin_Header_Straight_1x06_Pitch2.54mm" H 3700 4400 50  0001 C CNN
F 3 "" H 3700 4400 50  0001 C CNN
	1    3700 4400
	-1   0    0    1   
$EndComp
Text GLabel 3900 4500 2    60   Input ~ 0
TXD
Text GLabel 3900 4400 2    60   Input ~ 0
RXD_5V
Text GLabel 3900 4300 2    60   Input ~ 0
VIN
$Comp
L GND #PWR010
U 1 1 5B1AE7D5
P 3900 4100
F 0 "#PWR010" H 3900 3850 50  0001 C CNN
F 1 "GND" H 3900 3950 50  0000 C CNN
F 2 "" H 3900 4100 50  0001 C CNN
F 3 "" H 3900 4100 50  0001 C CNN
	1    3900 4100
	0    -1   -1   0   
$EndComp
$Comp
L Conn_01x03 J1
U 1 1 5B1AE9AB
P 2400 5350
F 0 "J1" H 2400 5550 50  0000 C CNN
F 1 "Conn_01x03" H 2400 5150 50  0000 C CNN
F 2 "Pin_Headers:Pin_Header_Straight_1x03_Pitch2.54mm" H 2400 5350 50  0001 C CNN
F 3 "" H 2400 5350 50  0001 C CNN
	1    2400 5350
	1    0    0    -1  
$EndComp
Text GLabel 1250 4950 1    60   Input ~ 0
VIN
$Comp
L +3V3 #PWR011
U 1 1 5B1AEBD1
P 1800 5050
F 0 "#PWR011" H 1800 4900 50  0001 C CNN
F 1 "+3V3" H 1800 5190 50  0000 C CNN
F 2 "" H 1800 5050 50  0001 C CNN
F 3 "" H 1800 5050 50  0001 C CNN
	1    1800 5050
	1    0    0    -1  
$EndComp
Wire Wire Line
	1800 5450 2200 5450
$Comp
L GND #PWR012
U 1 1 5B1AED6C
P 1600 5350
F 0 "#PWR012" H 1600 5100 50  0001 C CNN
F 1 "GND" H 1600 5200 50  0000 C CNN
F 2 "" H 1600 5350 50  0001 C CNN
F 3 "" H 1600 5350 50  0001 C CNN
	1    1600 5350
	1    0    0    -1  
$EndComp
Wire Wire Line
	2200 5350 1600 5350
Wire Wire Line
	1800 5050 1800 5450
$Comp
L D_Schottky D2
U 1 1 5B1AF3A3
P 1250 5100
F 0 "D2" H 1250 5200 50  0000 C CNN
F 1 "D_Schottky" H 1250 5000 50  0000 C CNN
F 2 "Diodes_THT:D_A-405_P2.54mm_Vertical_AnodeUp" H 1250 5100 50  0001 C CNN
F 3 "" H 1250 5100 50  0001 C CNN
	1    1250 5100
	0    1    1    0   
$EndComp
Wire Wire Line
	1250 5250 2200 5250
$Comp
L C C1
U 1 1 5B1AF607
P 1250 5400
F 0 "C1" H 1275 5500 50  0000 L CNN
F 1 "C" H 1275 5300 50  0000 L CNN
F 2 "Capacitors_THT:C_Disc_D3.0mm_W1.6mm_P2.50mm" H 1288 5250 50  0001 C CNN
F 3 "" H 1250 5400 50  0001 C CNN
	1    1250 5400
	1    0    0    -1  
$EndComp
$Comp
L GND #PWR013
U 1 1 5B1AF690
P 1250 5550
F 0 "#PWR013" H 1250 5300 50  0001 C CNN
F 1 "GND" H 1250 5400 50  0000 C CNN
F 2 "" H 1250 5550 50  0001 C CNN
F 3 "" H 1250 5550 50  0001 C CNN
	1    1250 5550
	1    0    0    -1  
$EndComp
$Comp
L +3V3 #PWR014
U 1 1 5B1AF6E6
P 1550 6100
F 0 "#PWR014" H 1550 5950 50  0001 C CNN
F 1 "+3V3" H 1550 6240 50  0000 C CNN
F 2 "" H 1550 6100 50  0001 C CNN
F 3 "" H 1550 6100 50  0001 C CNN
	1    1550 6100
	1    0    0    -1  
$EndComp
$Comp
L C C2
U 1 1 5B1AF71E
P 1550 6250
F 0 "C2" H 1575 6350 50  0000 L CNN
F 1 "C" H 1575 6150 50  0000 L CNN
F 2 "Capacitors_THT:C_Disc_D3.0mm_W1.6mm_P2.50mm" H 1588 6100 50  0001 C CNN
F 3 "" H 1550 6250 50  0001 C CNN
	1    1550 6250
	1    0    0    -1  
$EndComp
$Comp
L GND #PWR015
U 1 1 5B1AF784
P 1550 6400
F 0 "#PWR015" H 1550 6150 50  0001 C CNN
F 1 "GND" H 1550 6250 50  0000 C CNN
F 2 "" H 1550 6400 50  0001 C CNN
F 3 "" H 1550 6400 50  0001 C CNN
	1    1550 6400
	1    0    0    -1  
$EndComp
Text GLabel 7750 1200 0    60   Input ~ 0
GPIO15
Text GLabel 7750 1300 0    60   Input ~ 0
GPIO13
$Comp
L GND #PWR016
U 1 1 5B1B008E
P 7300 1400
F 0 "#PWR016" H 7300 1150 50  0001 C CNN
F 1 "GND" H 7300 1250 50  0000 C CNN
F 2 "" H 7300 1400 50  0001 C CNN
F 3 "" H 7300 1400 50  0001 C CNN
	1    7300 1400
	0    1    1    0   
$EndComp
$Comp
L +3V3 #PWR017
U 1 1 5B1B0154
P 6850 1500
F 0 "#PWR017" H 6850 1350 50  0001 C CNN
F 1 "+3V3" H 6850 1640 50  0000 C CNN
F 2 "" H 6850 1500 50  0001 C CNN
F 3 "" H 6850 1500 50  0001 C CNN
	1    6850 1500
	1    0    0    -1  
$EndComp
Wire Wire Line
	6850 1500 7750 1500
Wire Wire Line
	7750 1400 7300 1400
Text GLabel 7750 1600 0    60   Input ~ 0
GPIO14
$Comp
L GND #PWR018
U 1 1 5B1B03B1
P 7300 1700
F 0 "#PWR018" H 7300 1450 50  0001 C CNN
F 1 "GND" H 7300 1550 50  0000 C CNN
F 2 "" H 7300 1700 50  0001 C CNN
F 3 "" H 7300 1700 50  0001 C CNN
	1    7300 1700
	0    1    1    0   
$EndComp
Wire Wire Line
	7300 1700 7750 1700
Text GLabel 7750 1800 0    60   Input ~ 0
GPIO12
Text Notes 3650 3800 0    100  ~ 0
FTDI
Text Notes 1550 4650 0    100  ~ 0
REGULATOR
Text Notes 1150 950  0    100  ~ 0
REST / FLASH
Text Notes 4650 950  0    100  ~ 0
ESP8266
Text Notes 7250 900  0    100  ~ 0
microSD conn
$Comp
L R R6
U 1 1 5B1B1344
P 7450 3100
F 0 "R6" V 7530 3100 50  0000 C CNN
F 1 "R" V 7450 3100 50  0000 C CNN
F 2 "Resistors_THT:R_Axial_DIN0204_L3.6mm_D1.6mm_P1.90mm_Vertical" V 7380 3100 50  0001 C CNN
F 3 "" H 7450 3100 50  0001 C CNN
	1    7450 3100
	1    0    0    -1  
$EndComp
$Comp
L R R7
U 1 1 5B1B134A
P 7650 3100
F 0 "R7" V 7730 3100 50  0000 C CNN
F 1 "R" V 7650 3100 50  0000 C CNN
F 2 "Resistors_THT:R_Axial_DIN0204_L3.6mm_D1.6mm_P1.90mm_Vertical" V 7580 3100 50  0001 C CNN
F 3 "" H 7650 3100 50  0001 C CNN
	1    7650 3100
	1    0    0    -1  
$EndComp
$Comp
L +3V3 #PWR019
U 1 1 5B1B1350
P 7650 2950
F 0 "#PWR019" H 7650 2800 50  0001 C CNN
F 1 "+3V3" H 7650 3090 50  0000 C CNN
F 2 "" H 7650 2950 50  0001 C CNN
F 3 "" H 7650 2950 50  0001 C CNN
	1    7650 2950
	1    0    0    -1  
$EndComp
$Comp
L +3V3 #PWR020
U 1 1 5B1B1356
P 7450 2950
F 0 "#PWR020" H 7450 2800 50  0001 C CNN
F 1 "+3V3" H 7450 3090 50  0000 C CNN
F 2 "" H 7450 2950 50  0001 C CNN
F 3 "" H 7450 2950 50  0001 C CNN
	1    7450 2950
	1    0    0    -1  
$EndComp
Text Notes 9800 2800 0    100  ~ 0
1-Wire
$Comp
L Screw_Terminal_01x03 J8
U 1 1 5B1B1711
P 10250 3200
F 0 "J8" H 10250 3400 50  0000 C CNN
F 1 "Screw_Terminal_01x03" H 10650 2950 50  0000 C CNN
F 2 "TerminalBlocks_Phoenix:TerminalBlock_Phoenix_MKDS1.5-3pol" H 10250 3200 50  0001 C CNN
F 3 "" H 10250 3200 50  0001 C CNN
	1    10250 3200
	1    0    0    -1  
$EndComp
Text GLabel 10050 3300 0    60   Input ~ 0
GPIO2
$Comp
L GND #PWR021
U 1 1 5B1B18C3
P 9500 3200
F 0 "#PWR021" H 9500 2950 50  0001 C CNN
F 1 "GND" H 9500 3050 50  0000 C CNN
F 2 "" H 9500 3200 50  0001 C CNN
F 3 "" H 9500 3200 50  0001 C CNN
	1    9500 3200
	1    0    0    -1  
$EndComp
$Comp
L +3V3 #PWR022
U 1 1 5B1B1A2D
P 10050 3100
F 0 "#PWR022" H 10050 2950 50  0001 C CNN
F 1 "+3V3" H 10050 3240 50  0000 C CNN
F 2 "" H 10050 3100 50  0001 C CNN
F 3 "" H 10050 3100 50  0001 C CNN
	1    10050 3100
	1    0    0    -1  
$EndComp
$Comp
L Conn_01x04 J6
U 1 1 5B1B20FA
P 9850 1400
F 0 "J6" H 9850 1600 50  0000 C CNN
F 1 "Conn_01x04" H 10050 1100 50  0000 C CNN
F 2 "Pin_Headers:Pin_Header_Straight_1x04_Pitch2.54mm" H 9850 1400 50  0001 C CNN
F 3 "" H 9850 1400 50  0001 C CNN
	1    9850 1400
	1    0    0    -1  
$EndComp
Text Notes 10050 1050 2    100  ~ 0
DHT22
Wire Wire Line
	9650 1300 9050 1300
$Comp
L +3V3 #PWR023
U 1 1 5B1B232E
P 9050 1300
F 0 "#PWR023" H 9050 1150 50  0001 C CNN
F 1 "+3V3" H 9050 1440 50  0000 C CNN
F 2 "" H 9050 1300 50  0001 C CNN
F 3 "" H 9050 1300 50  0001 C CNN
	1    9050 1300
	1    0    0    -1  
$EndComp
Text GLabel 9650 1400 0    60   Input ~ 0
GPIO16
$Comp
L GND #PWR024
U 1 1 5B1B2464
P 9650 1600
F 0 "#PWR024" H 9650 1350 50  0001 C CNN
F 1 "GND" H 9650 1450 50  0000 C CNN
F 2 "" H 9650 1600 50  0001 C CNN
F 3 "" H 9650 1600 50  0001 C CNN
	1    9650 1600
	1    0    0    -1  
$EndComp
$Comp
L Screw_Terminal_01x04 J5
U 1 1 5B1B287B
P 8600 3400
F 0 "J5" H 8600 3600 50  0000 C CNN
F 1 "Screw_Terminal_01x04" H 8600 3100 50  0000 C CNN
F 2 "TerminalBlocks_Phoenix:TerminalBlock_Phoenix_MKDS1.5-4pol" H 8600 3400 50  0001 C CNN
F 3 "" H 8600 3400 50  0001 C CNN
	1    8600 3400
	1    0    0    -1  
$EndComp
Wire Wire Line
	10050 3250 10050 3200
Wire Wire Line
	10050 3200 9500 3200
Text Notes 8100 2550 2    100  ~ 0
I2C
$Comp
L +3V3 #PWR025
U 1 1 5B1B35DB
P 8400 3300
F 0 "#PWR025" H 8400 3150 50  0001 C CNN
F 1 "+3V3" H 8400 3440 50  0000 C CNN
F 2 "" H 8400 3300 50  0001 C CNN
F 3 "" H 8400 3300 50  0001 C CNN
	1    8400 3300
	1    0    0    -1  
$EndComp
$Comp
L GND #PWR026
U 1 1 5B1B3628
P 7950 3700
F 0 "#PWR026" H 7950 3450 50  0001 C CNN
F 1 "GND" H 7950 3550 50  0000 C CNN
F 2 "" H 7950 3700 50  0001 C CNN
F 3 "" H 7950 3700 50  0001 C CNN
	1    7950 3700
	1    0    0    -1  
$EndComp
Text GLabel 7400 3500 0    60   Input ~ 0
GPIO4
Text GLabel 7400 3600 0    60   Input ~ 0
GPIO5
Wire Wire Line
	8400 3500 7400 3500
Wire Wire Line
	8400 3600 7400 3600
Wire Wire Line
	7450 3500 7450 3250
Connection ~ 7450 3500
Wire Wire Line
	7650 3600 7650 3250
Connection ~ 7650 3600
Text Notes 10650 4500 2    100  ~ 0
SCREW BREAKOUT
$Comp
L Screw_Terminal_01x05 J7
U 1 1 5B1B4D9D
P 10200 4950
F 0 "J7" H 10200 5250 50  0000 C CNN
F 1 "Screw_Terminal_01x05" H 10550 4650 50  0000 C CNN
F 2 "TerminalBlocks_Phoenix:TerminalBlock_Phoenix_MKDS1.5-5pol" H 10200 4950 50  0001 C CNN
F 3 "" H 10200 4950 50  0001 C CNN
	1    10200 4950
	1    0    0    -1  
$EndComp
Text GLabel 10000 4750 0    60   Input ~ 0
ADC
Text GLabel 10000 4850 0    60   Input ~ 0
GPIO16
Text GLabel 10000 4950 0    60   Input ~ 0
GPIO0
$Comp
L +3V3 #PWR027
U 1 1 5B1B5457
P 9450 5050
F 0 "#PWR027" H 9450 4900 50  0001 C CNN
F 1 "+3V3" H 9450 5190 50  0000 C CNN
F 2 "" H 9450 5050 50  0001 C CNN
F 3 "" H 9450 5050 50  0001 C CNN
	1    9450 5050
	1    0    0    -1  
$EndComp
Wire Wire Line
	10000 5050 9450 5050
$Comp
L GND #PWR028
U 1 1 5B1B56AD
P 10000 5150
F 0 "#PWR028" H 10000 4900 50  0001 C CNN
F 1 "GND" H 10000 5000 50  0000 C CNN
F 2 "" H 10000 5150 50  0001 C CNN
F 3 "" H 10000 5150 50  0001 C CNN
	1    10000 5150
	1    0    0    -1  
$EndComp
Wire Wire Line
	8400 3400 7950 3400
Wire Wire Line
	7950 3400 7950 3700
$Comp
L Screw_Terminal_01x02 J3
U 1 1 5B1B67C8
P 5850 5000
F 0 "J3" H 5850 5100 50  0000 C CNN
F 1 "Screw_Terminal_01x02" H 6200 4750 50  0000 C CNN
F 2 "TerminalBlocks_Phoenix:TerminalBlock_Phoenix_MKDS1.5-2pol" H 5850 5000 50  0001 C CNN
F 3 "" H 5850 5000 50  0001 C CNN
	1    5850 5000
	1    0    0    -1  
$EndComp
Text Notes 5750 4750 0    100  ~ 0
BATT
Text GLabel 5650 5000 0    60   Input ~ 0
VIN
$Comp
L GND #PWR029
U 1 1 5B1B6A88
P 5650 5100
F 0 "#PWR029" H 5650 4850 50  0001 C CNN
F 1 "GND" H 5650 4950 50  0000 C CNN
F 2 "" H 5650 5100 50  0001 C CNN
F 3 "" H 5650 5100 50  0001 C CNN
	1    5650 5100
	1    0    0    -1  
$EndComp
$Comp
L Conn_01x07 J22
U 1 1 5B1AE99D
P 7950 1500
F 0 "J22" H 7950 1900 50  0000 C CNN
F 1 "Conn_01x07" H 7950 1100 50  0000 C CNN
F 2 "Pin_Headers:Pin_Header_Straight_1x07_Pitch2.54mm" H 7950 1500 50  0001 C CNN
F 3 "" H 7950 1500 50  0001 C CNN
	1    7950 1500
	1    0    0    -1  
$EndComp
$EndSCHEMATC
