(kicad_pcb (version 4) (host pcbnew 4.0.7-e2-6376~60~ubuntu17.10.1)

  (general
    (links 60)
    (no_connects 60)
    (area 46.914999 27.229999 91.515001 92.785001)
    (thickness 1.6)
    (drawings 4)
    (tracks 0)
    (zones 0)
    (modules 24)
    (nets 25)
  )

  (page A4)
  (layers
    (0 F.Cu signal)
    (31 B.Cu signal)
    (32 B.Adhes user)
    (33 F.Adhes user)
    (34 B.Paste user)
    (35 F.Paste user)
    (36 B.SilkS user)
    (37 F.SilkS user)
    (38 B.Mask user)
    (39 F.Mask user)
    (40 Dwgs.User user)
    (41 Cmts.User user)
    (42 Eco1.User user)
    (43 Eco2.User user)
    (44 Edge.Cuts user)
    (45 Margin user)
    (46 B.CrtYd user)
    (47 F.CrtYd user)
    (48 B.Fab user)
    (49 F.Fab user)
  )

  (setup
    (last_trace_width 0.25)
    (trace_clearance 0.2)
    (zone_clearance 0.508)
    (zone_45_only no)
    (trace_min 0.2)
    (segment_width 0.2)
    (edge_width 0.15)
    (via_size 0.6)
    (via_drill 0.4)
    (via_min_size 0.4)
    (via_min_drill 0.3)
    (uvia_size 0.3)
    (uvia_drill 0.1)
    (uvias_allowed no)
    (uvia_min_size 0.2)
    (uvia_min_drill 0.1)
    (pcb_text_width 0.3)
    (pcb_text_size 1.5 1.5)
    (mod_edge_width 0.15)
    (mod_text_size 1 1)
    (mod_text_width 0.15)
    (pad_size 1.524 1.524)
    (pad_drill 0.762)
    (pad_to_mask_clearance 0.2)
    (aux_axis_origin 0 0)
    (visible_elements FFFFF77F)
    (pcbplotparams
      (layerselection 0x00030_80000001)
      (usegerberextensions false)
      (excludeedgelayer true)
      (linewidth 0.100000)
      (plotframeref false)
      (viasonmask false)
      (mode 1)
      (useauxorigin false)
      (hpglpennumber 1)
      (hpglpenspeed 20)
      (hpglpendiameter 15)
      (hpglpenoverlay 2)
      (psnegative false)
      (psa4output false)
      (plotreference true)
      (plotvalue false)
      (plotinvisibletext false)
      (padsonsilk false)
      (subtractmaskfromsilk false)
      (outputformat 5)
      (mirror false)
      (drillshape 0)
      (scaleselection 1)
      (outputdirectory ./))
  )

  (net 0 "")
  (net 1 "Net-(C1-Pad1)")
  (net 2 GND)
  (net 3 RESET)
  (net 4 "Net-(D1-Pad1)")
  (net 5 VIN)
  (net 6 RESET_5V)
  (net 7 RXD_5V)
  (net 8 RXD)
  (net 9 "Net-(J2-Pad1)")
  (net 10 TXD)
  (net 11 "Net-(J2-Pad5)")
  (net 12 GPIO5)
  (net 13 GPIO4)
  (net 14 GPIO16)
  (net 15 "Net-(J6-Pad3)")
  (net 16 GPIO0)
  (net 17 ADC)
  (net 18 GPIO2)
  (net 19 GPIO15)
  (net 20 GPIO13)
  (net 21 GPIO14)
  (net 22 GPIO12)
  (net 23 "Net-(R2-Pad2)")
  (net 24 CH_PD)

  (net_class Default "This is the default net class."
    (clearance 0.2)
    (trace_width 0.25)
    (via_dia 0.6)
    (via_drill 0.4)
    (uvia_dia 0.3)
    (uvia_drill 0.1)
    (add_net ADC)
    (add_net CH_PD)
    (add_net GND)
    (add_net GPIO0)
    (add_net GPIO12)
    (add_net GPIO13)
    (add_net GPIO14)
    (add_net GPIO15)
    (add_net GPIO16)
    (add_net GPIO2)
    (add_net GPIO4)
    (add_net GPIO5)
    (add_net "Net-(C1-Pad1)")
    (add_net "Net-(D1-Pad1)")
    (add_net "Net-(J2-Pad1)")
    (add_net "Net-(J2-Pad5)")
    (add_net "Net-(J6-Pad3)")
    (add_net "Net-(R2-Pad2)")
    (add_net RESET)
    (add_net RESET_5V)
    (add_net RXD)
    (add_net RXD_5V)
    (add_net TXD)
    (add_net VIN)
  )

  (module LEDs:LED_Rectangular_W3.0mm_H2.0mm (layer F.Cu) (tedit 587A3A7B) (tstamp 5B1AEA7C)
    (at 83.82 64.77 90)
    (descr "LED_Rectangular, Rectangular,  Rectangular size 3.0x2.0mm^2, 2 pins, http://www.kingbright.com/attachments/file/psearch/000/00/00/L-169XCGDK(Ver.9B).pdf")
    (tags "LED_Rectangular Rectangular  Rectangular size 3.0x2.0mm^2 2 pins")
    (path /5B1AE0EF)
    (fp_text reference D1 (at 1.27 -2.06 90) (layer F.SilkS)
      (effects (font (size 1 1) (thickness 0.15)))
    )
    (fp_text value LED (at 1.27 2.06 90) (layer F.Fab)
      (effects (font (size 1 1) (thickness 0.15)))
    )
    (fp_line (start -0.23 -1) (end -0.23 1) (layer F.Fab) (width 0.1))
    (fp_line (start -0.23 1) (end 2.77 1) (layer F.Fab) (width 0.1))
    (fp_line (start 2.77 1) (end 2.77 -1) (layer F.Fab) (width 0.1))
    (fp_line (start 2.77 -1) (end -0.23 -1) (layer F.Fab) (width 0.1))
    (fp_line (start 1.08 -1.06) (end 1.811 -1.06) (layer F.SilkS) (width 0.12))
    (fp_line (start 1.08 1.06) (end 1.811 1.06) (layer F.SilkS) (width 0.12))
    (fp_line (start -1.15 -1.35) (end -1.15 1.35) (layer F.CrtYd) (width 0.05))
    (fp_line (start -1.15 1.35) (end 3.7 1.35) (layer F.CrtYd) (width 0.05))
    (fp_line (start 3.7 1.35) (end 3.7 -1.35) (layer F.CrtYd) (width 0.05))
    (fp_line (start 3.7 -1.35) (end -1.15 -1.35) (layer F.CrtYd) (width 0.05))
    (pad 1 thru_hole rect (at 0 0 90) (size 1.8 1.8) (drill 0.9) (layers *.Cu *.Mask)
      (net 4 "Net-(D1-Pad1)"))
    (pad 2 thru_hole circle (at 2.54 0 90) (size 1.8 1.8) (drill 0.9) (layers *.Cu *.Mask)
      (net 3 RESET))
    (model ${KISYS3DMOD}/LEDs.3dshapes/LED_Rectangular_W3.0mm_H2.0mm.wrl
      (at (xyz 0 0 0))
      (scale (xyz 0.393701 0.393701 0.393701))
      (rotate (xyz 0 0 0))
    )
  )

  (module Pin_Headers:Pin_Header_Straight_1x03_Pitch2.54mm (layer F.Cu) (tedit 59650532) (tstamp 5B1AEA95)
    (at 78.74 35.56 180)
    (descr "Through hole straight pin header, 1x03, 2.54mm pitch, single row")
    (tags "Through hole pin header THT 1x03 2.54mm single row")
    (path /5B1AE9AB)
    (fp_text reference J1 (at 0 -2.33 180) (layer F.SilkS)
      (effects (font (size 1 1) (thickness 0.15)))
    )
    (fp_text value Conn_01x03 (at 0 7.41 180) (layer F.Fab)
      (effects (font (size 1 1) (thickness 0.15)))
    )
    (fp_line (start -0.635 -1.27) (end 1.27 -1.27) (layer F.Fab) (width 0.1))
    (fp_line (start 1.27 -1.27) (end 1.27 6.35) (layer F.Fab) (width 0.1))
    (fp_line (start 1.27 6.35) (end -1.27 6.35) (layer F.Fab) (width 0.1))
    (fp_line (start -1.27 6.35) (end -1.27 -0.635) (layer F.Fab) (width 0.1))
    (fp_line (start -1.27 -0.635) (end -0.635 -1.27) (layer F.Fab) (width 0.1))
    (fp_line (start -1.33 6.41) (end 1.33 6.41) (layer F.SilkS) (width 0.12))
    (fp_line (start -1.33 1.27) (end -1.33 6.41) (layer F.SilkS) (width 0.12))
    (fp_line (start 1.33 1.27) (end 1.33 6.41) (layer F.SilkS) (width 0.12))
    (fp_line (start -1.33 1.27) (end 1.33 1.27) (layer F.SilkS) (width 0.12))
    (fp_line (start -1.33 0) (end -1.33 -1.33) (layer F.SilkS) (width 0.12))
    (fp_line (start -1.33 -1.33) (end 0 -1.33) (layer F.SilkS) (width 0.12))
    (fp_line (start -1.8 -1.8) (end -1.8 6.85) (layer F.CrtYd) (width 0.05))
    (fp_line (start -1.8 6.85) (end 1.8 6.85) (layer F.CrtYd) (width 0.05))
    (fp_line (start 1.8 6.85) (end 1.8 -1.8) (layer F.CrtYd) (width 0.05))
    (fp_line (start 1.8 -1.8) (end -1.8 -1.8) (layer F.CrtYd) (width 0.05))
    (fp_text user %R (at 0 2.54 270) (layer F.Fab)
      (effects (font (size 1 1) (thickness 0.15)))
    )
    (pad 1 thru_hole rect (at 0 0 180) (size 1.7 1.7) (drill 1) (layers *.Cu *.Mask)
      (net 1 "Net-(C1-Pad1)"))
    (pad 2 thru_hole oval (at 0 2.54 180) (size 1.7 1.7) (drill 1) (layers *.Cu *.Mask)
      (net 2 GND))
    (pad 3 thru_hole oval (at 0 5.08 180) (size 1.7 1.7) (drill 1) (layers *.Cu *.Mask)
      (net 3 RESET))
    (model ${KISYS3DMOD}/Pin_Headers.3dshapes/Pin_Header_Straight_1x03_Pitch2.54mm.wrl
      (at (xyz 0 0 0))
      (scale (xyz 1 1 1))
      (rotate (xyz 0 0 0))
    )
  )

  (module Pin_Headers:Pin_Header_Straight_1x06_Pitch2.54mm (layer F.Cu) (tedit 59650532) (tstamp 5B1AEA9F)
    (at 64.135 89.535 90)
    (descr "Through hole straight pin header, 1x06, 2.54mm pitch, single row")
    (tags "Through hole pin header THT 1x06 2.54mm single row")
    (path /5B1AE4DD)
    (fp_text reference J2 (at 0 -2.33 90) (layer F.SilkS)
      (effects (font (size 1 1) (thickness 0.15)))
    )
    (fp_text value Conn_01x06 (at 0 15.03 90) (layer F.Fab)
      (effects (font (size 1 1) (thickness 0.15)))
    )
    (fp_line (start -0.635 -1.27) (end 1.27 -1.27) (layer F.Fab) (width 0.1))
    (fp_line (start 1.27 -1.27) (end 1.27 13.97) (layer F.Fab) (width 0.1))
    (fp_line (start 1.27 13.97) (end -1.27 13.97) (layer F.Fab) (width 0.1))
    (fp_line (start -1.27 13.97) (end -1.27 -0.635) (layer F.Fab) (width 0.1))
    (fp_line (start -1.27 -0.635) (end -0.635 -1.27) (layer F.Fab) (width 0.1))
    (fp_line (start -1.33 14.03) (end 1.33 14.03) (layer F.SilkS) (width 0.12))
    (fp_line (start -1.33 1.27) (end -1.33 14.03) (layer F.SilkS) (width 0.12))
    (fp_line (start 1.33 1.27) (end 1.33 14.03) (layer F.SilkS) (width 0.12))
    (fp_line (start -1.33 1.27) (end 1.33 1.27) (layer F.SilkS) (width 0.12))
    (fp_line (start -1.33 0) (end -1.33 -1.33) (layer F.SilkS) (width 0.12))
    (fp_line (start -1.33 -1.33) (end 0 -1.33) (layer F.SilkS) (width 0.12))
    (fp_line (start -1.8 -1.8) (end -1.8 14.5) (layer F.CrtYd) (width 0.05))
    (fp_line (start -1.8 14.5) (end 1.8 14.5) (layer F.CrtYd) (width 0.05))
    (fp_line (start 1.8 14.5) (end 1.8 -1.8) (layer F.CrtYd) (width 0.05))
    (fp_line (start 1.8 -1.8) (end -1.8 -1.8) (layer F.CrtYd) (width 0.05))
    (fp_text user %R (at 0 6.35 180) (layer F.Fab)
      (effects (font (size 1 1) (thickness 0.15)))
    )
    (pad 1 thru_hole rect (at 0 0 90) (size 1.7 1.7) (drill 1) (layers *.Cu *.Mask)
      (net 9 "Net-(J2-Pad1)"))
    (pad 2 thru_hole oval (at 0 2.54 90) (size 1.7 1.7) (drill 1) (layers *.Cu *.Mask)
      (net 10 TXD))
    (pad 3 thru_hole oval (at 0 5.08 90) (size 1.7 1.7) (drill 1) (layers *.Cu *.Mask)
      (net 7 RXD_5V))
    (pad 4 thru_hole oval (at 0 7.62 90) (size 1.7 1.7) (drill 1) (layers *.Cu *.Mask)
      (net 5 VIN))
    (pad 5 thru_hole oval (at 0 10.16 90) (size 1.7 1.7) (drill 1) (layers *.Cu *.Mask)
      (net 11 "Net-(J2-Pad5)"))
    (pad 6 thru_hole oval (at 0 12.7 90) (size 1.7 1.7) (drill 1) (layers *.Cu *.Mask)
      (net 2 GND))
    (model ${KISYS3DMOD}/Pin_Headers.3dshapes/Pin_Header_Straight_1x06_Pitch2.54mm.wrl
      (at (xyz 0 0 0))
      (scale (xyz 1 1 1))
      (rotate (xyz 0 0 0))
    )
  )

  (module TerminalBlocks_Phoenix:TerminalBlock_Phoenix_MKDS1.5-2pol (layer F.Cu) (tedit 59FF0755) (tstamp 5B1AEAA5)
    (at 64.77 33.655)
    (descr "2-way 5mm pitch terminal block, Phoenix MKDS series")
    (path /5B1B67C8)
    (fp_text reference J3 (at 2.5 5.9) (layer F.SilkS)
      (effects (font (size 1 1) (thickness 0.15)))
    )
    (fp_text value Screw_Terminal_01x02 (at 2.5 -6.6) (layer F.Fab)
      (effects (font (size 1 1) (thickness 0.15)))
    )
    (fp_text user %R (at 2.5 0) (layer F.Fab)
      (effects (font (size 1 1) (thickness 0.15)))
    )
    (fp_line (start -2.7 -5.4) (end 7.7 -5.4) (layer F.CrtYd) (width 0.05))
    (fp_line (start -2.7 4.8) (end -2.7 -5.4) (layer F.CrtYd) (width 0.05))
    (fp_line (start 7.7 4.8) (end -2.7 4.8) (layer F.CrtYd) (width 0.05))
    (fp_line (start 7.7 -5.4) (end 7.7 4.8) (layer F.CrtYd) (width 0.05))
    (fp_line (start 2.5 4.1) (end 2.5 4.6) (layer F.SilkS) (width 0.15))
    (fp_line (start -2.5 2.6) (end 7.5 2.6) (layer F.SilkS) (width 0.15))
    (fp_line (start -2.5 -2.3) (end 7.5 -2.3) (layer F.SilkS) (width 0.15))
    (fp_line (start -2.5 4.1) (end 7.5 4.1) (layer F.SilkS) (width 0.15))
    (fp_line (start -2.5 4.6) (end 7.5 4.6) (layer F.SilkS) (width 0.15))
    (fp_line (start 7.5 4.6) (end 7.5 -5.2) (layer F.SilkS) (width 0.15))
    (fp_line (start 7.5 -5.2) (end -2.5 -5.2) (layer F.SilkS) (width 0.15))
    (fp_line (start -2.5 -5.2) (end -2.5 4.6) (layer F.SilkS) (width 0.15))
    (fp_circle (center 5 0.1) (end 3 0.1) (layer F.SilkS) (width 0.15))
    (fp_circle (center 0 0.1) (end 2 0.1) (layer F.SilkS) (width 0.15))
    (pad 1 thru_hole rect (at 0 0) (size 2.5 2.5) (drill 1.3) (layers *.Cu *.Mask)
      (net 5 VIN))
    (pad 2 thru_hole circle (at 5 0) (size 2.5 2.5) (drill 1.3) (layers *.Cu *.Mask)
      (net 2 GND))
    (model ${KISYS3DMOD}/TerminalBlock_Phoenix.3dshapes/TerminalBlock_Phoenix_MKDS1.5-2pol.wrl
      (at (xyz 0.0984 0 0))
      (scale (xyz 1 1 1))
      (rotate (xyz 0 0 0))
    )
  )

  (module TerminalBlocks_Phoenix:TerminalBlock_Phoenix_MKDS1.5-4pol (layer F.Cu) (tedit 59FF0755) (tstamp 5B1AEAAD)
    (at 52.07 72.39 90)
    (descr "4-way 5mm pitch terminal block, Phoenix MKDS series")
    (path /5B1B287B)
    (fp_text reference J5 (at 7.5 5.9 90) (layer F.SilkS)
      (effects (font (size 1 1) (thickness 0.15)))
    )
    (fp_text value Screw_Terminal_01x04 (at 7.5 -6.6 90) (layer F.Fab)
      (effects (font (size 1 1) (thickness 0.15)))
    )
    (fp_text user %R (at 7.5 0 90) (layer F.Fab)
      (effects (font (size 1 1) (thickness 0.15)))
    )
    (fp_line (start -2.7 -5.4) (end 17.7 -5.4) (layer F.CrtYd) (width 0.05))
    (fp_line (start -2.7 4.8) (end -2.7 -5.4) (layer F.CrtYd) (width 0.05))
    (fp_line (start 17.7 4.8) (end -2.7 4.8) (layer F.CrtYd) (width 0.05))
    (fp_line (start 17.7 -5.4) (end 17.7 4.8) (layer F.CrtYd) (width 0.05))
    (fp_line (start 12.5 4.1) (end 12.5 4.6) (layer F.SilkS) (width 0.15))
    (fp_line (start 7.5 4.1) (end 7.5 4.6) (layer F.SilkS) (width 0.15))
    (fp_line (start 2.5 4.1) (end 2.5 4.6) (layer F.SilkS) (width 0.15))
    (fp_line (start -2.5 2.6) (end 17.5 2.6) (layer F.SilkS) (width 0.15))
    (fp_line (start -2.5 -2.3) (end 17.5 -2.3) (layer F.SilkS) (width 0.15))
    (fp_line (start -2.5 4.1) (end 17.5 4.1) (layer F.SilkS) (width 0.15))
    (fp_line (start -2.5 4.6) (end 17.5 4.6) (layer F.SilkS) (width 0.15))
    (fp_line (start 17.5 4.6) (end 17.5 -5.2) (layer F.SilkS) (width 0.15))
    (fp_line (start 17.5 -5.2) (end -2.5 -5.2) (layer F.SilkS) (width 0.15))
    (fp_line (start -2.5 -5.2) (end -2.5 4.6) (layer F.SilkS) (width 0.15))
    (fp_circle (center 15 0.1) (end 13 0.1) (layer F.SilkS) (width 0.15))
    (fp_circle (center 10 0.1) (end 8 0.1) (layer F.SilkS) (width 0.15))
    (fp_circle (center 5 0.1) (end 3 0.1) (layer F.SilkS) (width 0.15))
    (fp_circle (center 0 0.1) (end 2 0.1) (layer F.SilkS) (width 0.15))
    (pad 4 thru_hole circle (at 15 0 90) (size 2.5 2.5) (drill 1.3) (layers *.Cu *.Mask)
      (net 12 GPIO5))
    (pad 3 thru_hole circle (at 10 0 90) (size 2.5 2.5) (drill 1.3) (layers *.Cu *.Mask)
      (net 13 GPIO4))
    (pad 1 thru_hole rect (at 0 0 90) (size 2.5 2.5) (drill 1.3) (layers *.Cu *.Mask)
      (net 3 RESET))
    (pad 2 thru_hole circle (at 5 0 90) (size 2.5 2.5) (drill 1.3) (layers *.Cu *.Mask)
      (net 2 GND))
    (model ${KISYS3DMOD}/TerminalBlock_Phoenix.3dshapes/TerminalBlock_Phoenix_MKDS1.5-4pol.wrl
      (at (xyz 0.2953 0 0))
      (scale (xyz 1 1 1))
      (rotate (xyz 0 0 0))
    )
  )

  (module Pin_Headers:Pin_Header_Straight_1x04_Pitch2.54mm (layer F.Cu) (tedit 59650532) (tstamp 5B1AEAB5)
    (at 88.9 55.88 180)
    (descr "Through hole straight pin header, 1x04, 2.54mm pitch, single row")
    (tags "Through hole pin header THT 1x04 2.54mm single row")
    (path /5B1B20FA)
    (fp_text reference J6 (at 0 -2.33 180) (layer F.SilkS)
      (effects (font (size 1 1) (thickness 0.15)))
    )
    (fp_text value Conn_01x04 (at 0 9.95 180) (layer F.Fab)
      (effects (font (size 1 1) (thickness 0.15)))
    )
    (fp_line (start -0.635 -1.27) (end 1.27 -1.27) (layer F.Fab) (width 0.1))
    (fp_line (start 1.27 -1.27) (end 1.27 8.89) (layer F.Fab) (width 0.1))
    (fp_line (start 1.27 8.89) (end -1.27 8.89) (layer F.Fab) (width 0.1))
    (fp_line (start -1.27 8.89) (end -1.27 -0.635) (layer F.Fab) (width 0.1))
    (fp_line (start -1.27 -0.635) (end -0.635 -1.27) (layer F.Fab) (width 0.1))
    (fp_line (start -1.33 8.95) (end 1.33 8.95) (layer F.SilkS) (width 0.12))
    (fp_line (start -1.33 1.27) (end -1.33 8.95) (layer F.SilkS) (width 0.12))
    (fp_line (start 1.33 1.27) (end 1.33 8.95) (layer F.SilkS) (width 0.12))
    (fp_line (start -1.33 1.27) (end 1.33 1.27) (layer F.SilkS) (width 0.12))
    (fp_line (start -1.33 0) (end -1.33 -1.33) (layer F.SilkS) (width 0.12))
    (fp_line (start -1.33 -1.33) (end 0 -1.33) (layer F.SilkS) (width 0.12))
    (fp_line (start -1.8 -1.8) (end -1.8 9.4) (layer F.CrtYd) (width 0.05))
    (fp_line (start -1.8 9.4) (end 1.8 9.4) (layer F.CrtYd) (width 0.05))
    (fp_line (start 1.8 9.4) (end 1.8 -1.8) (layer F.CrtYd) (width 0.05))
    (fp_line (start 1.8 -1.8) (end -1.8 -1.8) (layer F.CrtYd) (width 0.05))
    (fp_text user %R (at 0 3.81 270) (layer F.Fab)
      (effects (font (size 1 1) (thickness 0.15)))
    )
    (pad 1 thru_hole rect (at 0 0 180) (size 1.7 1.7) (drill 1) (layers *.Cu *.Mask)
      (net 3 RESET))
    (pad 2 thru_hole oval (at 0 2.54 180) (size 1.7 1.7) (drill 1) (layers *.Cu *.Mask)
      (net 14 GPIO16))
    (pad 3 thru_hole oval (at 0 5.08 180) (size 1.7 1.7) (drill 1) (layers *.Cu *.Mask)
      (net 15 "Net-(J6-Pad3)"))
    (pad 4 thru_hole oval (at 0 7.62 180) (size 1.7 1.7) (drill 1) (layers *.Cu *.Mask)
      (net 2 GND))
    (model ${KISYS3DMOD}/Pin_Headers.3dshapes/Pin_Header_Straight_1x04_Pitch2.54mm.wrl
      (at (xyz 0 0 0))
      (scale (xyz 1 1 1))
      (rotate (xyz 0 0 0))
    )
  )

  (module TerminalBlocks_Phoenix:TerminalBlock_Phoenix_MKDS1.5-5pol (layer F.Cu) (tedit 59FF0755) (tstamp 5B1AEABE)
    (at 52.07 50.8 90)
    (descr "5-way 5mm pitch terminal block, Phoenix MKDS series")
    (path /5B1B4D9D)
    (fp_text reference J7 (at 10 5.9 90) (layer F.SilkS)
      (effects (font (size 1 1) (thickness 0.15)))
    )
    (fp_text value Screw_Terminal_01x05 (at 10 -6.6 90) (layer F.Fab)
      (effects (font (size 1 1) (thickness 0.15)))
    )
    (fp_text user %R (at 10 0 90) (layer F.Fab)
      (effects (font (size 1 1) (thickness 0.15)))
    )
    (fp_line (start -2.7 4.8) (end 22.7 4.8) (layer F.CrtYd) (width 0.05))
    (fp_line (start -2.7 -5.4) (end -2.7 4.8) (layer F.CrtYd) (width 0.05))
    (fp_line (start 22.7 -5.4) (end -2.7 -5.4) (layer F.CrtYd) (width 0.05))
    (fp_line (start 22.7 4.8) (end 22.7 -5.4) (layer F.CrtYd) (width 0.05))
    (fp_line (start 17.5 4.1) (end 17.5 4.6) (layer F.SilkS) (width 0.15))
    (fp_line (start 12.5 4.1) (end 12.5 4.6) (layer F.SilkS) (width 0.15))
    (fp_line (start 7.5 4.1) (end 7.5 4.6) (layer F.SilkS) (width 0.15))
    (fp_line (start 2.5 4.1) (end 2.5 4.6) (layer F.SilkS) (width 0.15))
    (fp_line (start -2.5 2.6) (end 22.5 2.6) (layer F.SilkS) (width 0.15))
    (fp_line (start -2.5 -2.3) (end 22.5 -2.3) (layer F.SilkS) (width 0.15))
    (fp_line (start -2.5 4.1) (end 22.5 4.1) (layer F.SilkS) (width 0.15))
    (fp_line (start -2.5 4.6) (end 22.5 4.6) (layer F.SilkS) (width 0.15))
    (fp_line (start 22.5 4.6) (end 22.5 -5.2) (layer F.SilkS) (width 0.15))
    (fp_line (start 22.5 -5.2) (end -2.5 -5.2) (layer F.SilkS) (width 0.15))
    (fp_line (start -2.5 -5.2) (end -2.5 4.6) (layer F.SilkS) (width 0.15))
    (fp_circle (center 20 0.1) (end 18 0.1) (layer F.SilkS) (width 0.15))
    (fp_circle (center 15 0.1) (end 13 0.1) (layer F.SilkS) (width 0.15))
    (fp_circle (center 10 0.1) (end 8 0.1) (layer F.SilkS) (width 0.15))
    (fp_circle (center 5 0.1) (end 3 0.1) (layer F.SilkS) (width 0.15))
    (fp_circle (center 0 0.1) (end 2 0.1) (layer F.SilkS) (width 0.15))
    (pad 5 thru_hole circle (at 20 0 90) (size 2.5 2.5) (drill 1.3) (layers *.Cu *.Mask)
      (net 2 GND))
    (pad 4 thru_hole circle (at 15 0 90) (size 2.5 2.5) (drill 1.3) (layers *.Cu *.Mask)
      (net 3 RESET))
    (pad 3 thru_hole circle (at 10 0 90) (size 2.5 2.5) (drill 1.3) (layers *.Cu *.Mask)
      (net 16 GPIO0))
    (pad 1 thru_hole rect (at 0 0 90) (size 2.5 2.5) (drill 1.3) (layers *.Cu *.Mask)
      (net 17 ADC))
    (pad 2 thru_hole circle (at 5 0 90) (size 2.5 2.5) (drill 1.3) (layers *.Cu *.Mask)
      (net 14 GPIO16))
    (model ${KISYS3DMOD}/TerminalBlock_Phoenix.3dshapes/TerminalBlock_Phoenix_MKDS1.5-5pol.wrl
      (at (xyz 0.3937 0 0))
      (scale (xyz 1 1 1))
      (rotate (xyz 0 0 0))
    )
  )

  (module TerminalBlocks_Phoenix:TerminalBlock_Phoenix_MKDS1.5-3pol (layer F.Cu) (tedit 59FF0968) (tstamp 5B1AEAC5)
    (at 52.07 88.9 90)
    (descr "3-way 5mm pitch terminal block, Phoenix MKDS series")
    (path /5B1B1711)
    (fp_text reference J8 (at 5 5.9 90) (layer F.SilkS)
      (effects (font (size 1 1) (thickness 0.15)))
    )
    (fp_text value Screw_Terminal_01x03 (at 5 -6.6 90) (layer F.Fab)
      (effects (font (size 1 1) (thickness 0.15)))
    )
    (fp_text user %R (at 5 0 90) (layer F.Fab)
      (effects (font (size 1 1) (thickness 0.15)))
    )
    (fp_line (start -2.7 4.8) (end -2.7 -5.4) (layer F.CrtYd) (width 0.05))
    (fp_line (start 12.7 4.8) (end -2.7 4.8) (layer F.CrtYd) (width 0.05))
    (fp_line (start 12.7 -5.4) (end 12.7 4.8) (layer F.CrtYd) (width 0.05))
    (fp_line (start -2.7 -5.4) (end 12.7 -5.4) (layer F.CrtYd) (width 0.05))
    (fp_line (start 7.5 4.1) (end 7.5 4.6) (layer F.SilkS) (width 0.15))
    (fp_line (start 2.5 4.1) (end 2.5 4.6) (layer F.SilkS) (width 0.15))
    (fp_line (start -2.5 2.6) (end 12.5 2.6) (layer F.SilkS) (width 0.15))
    (fp_line (start -2.5 -2.3) (end 12.5 -2.3) (layer F.SilkS) (width 0.15))
    (fp_line (start -2.5 4.1) (end 12.5 4.1) (layer F.SilkS) (width 0.15))
    (fp_line (start -2.5 4.6) (end 12.5 4.6) (layer F.SilkS) (width 0.15))
    (fp_line (start 12.5 4.6) (end 12.5 -5.2) (layer F.SilkS) (width 0.15))
    (fp_line (start 12.5 -5.2) (end -2.5 -5.2) (layer F.SilkS) (width 0.15))
    (fp_line (start -2.5 -5.2) (end -2.5 4.6) (layer F.SilkS) (width 0.15))
    (fp_circle (center 10 0.1) (end 8 0.1) (layer F.SilkS) (width 0.15))
    (fp_circle (center 5 0.1) (end 3 0.1) (layer F.SilkS) (width 0.15))
    (fp_circle (center 0 0.1) (end 2 0.1) (layer F.SilkS) (width 0.15))
    (pad 3 thru_hole circle (at 10 0 90) (size 2.5 2.5) (drill 1.3) (layers *.Cu *.Mask)
      (net 18 GPIO2))
    (pad 1 thru_hole rect (at 0 0 90) (size 2.5 2.5) (drill 1.3) (layers *.Cu *.Mask)
      (net 3 RESET))
    (pad 2 thru_hole circle (at 5 0 90) (size 2.5 2.5) (drill 1.3) (layers *.Cu *.Mask)
      (net 2 GND))
    (model ${KISYS3DMOD}/TerminalBlock_Phoenix.3dshapes/TerminalBlock_Phoenix_MKDS1.5-3pol.wrl
      (at (xyz 0.1968 0 0))
      (scale (xyz 1 1 1))
      (rotate (xyz 0 0 0))
    )
  )

  (module Pin_Headers:Pin_Header_Straight_1x07_Pitch2.54mm (layer F.Cu) (tedit 59650532) (tstamp 5B1AEAD0)
    (at 77.47 43.815 270)
    (descr "Through hole straight pin header, 1x07, 2.54mm pitch, single row")
    (tags "Through hole pin header THT 1x07 2.54mm single row")
    (path /5B1AE99D)
    (fp_text reference J22 (at 0 -2.33 270) (layer F.SilkS)
      (effects (font (size 1 1) (thickness 0.15)))
    )
    (fp_text value Conn_01x07 (at 0 17.57 270) (layer F.Fab)
      (effects (font (size 1 1) (thickness 0.15)))
    )
    (fp_line (start -0.635 -1.27) (end 1.27 -1.27) (layer F.Fab) (width 0.1))
    (fp_line (start 1.27 -1.27) (end 1.27 16.51) (layer F.Fab) (width 0.1))
    (fp_line (start 1.27 16.51) (end -1.27 16.51) (layer F.Fab) (width 0.1))
    (fp_line (start -1.27 16.51) (end -1.27 -0.635) (layer F.Fab) (width 0.1))
    (fp_line (start -1.27 -0.635) (end -0.635 -1.27) (layer F.Fab) (width 0.1))
    (fp_line (start -1.33 16.57) (end 1.33 16.57) (layer F.SilkS) (width 0.12))
    (fp_line (start -1.33 1.27) (end -1.33 16.57) (layer F.SilkS) (width 0.12))
    (fp_line (start 1.33 1.27) (end 1.33 16.57) (layer F.SilkS) (width 0.12))
    (fp_line (start -1.33 1.27) (end 1.33 1.27) (layer F.SilkS) (width 0.12))
    (fp_line (start -1.33 0) (end -1.33 -1.33) (layer F.SilkS) (width 0.12))
    (fp_line (start -1.33 -1.33) (end 0 -1.33) (layer F.SilkS) (width 0.12))
    (fp_line (start -1.8 -1.8) (end -1.8 17.05) (layer F.CrtYd) (width 0.05))
    (fp_line (start -1.8 17.05) (end 1.8 17.05) (layer F.CrtYd) (width 0.05))
    (fp_line (start 1.8 17.05) (end 1.8 -1.8) (layer F.CrtYd) (width 0.05))
    (fp_line (start 1.8 -1.8) (end -1.8 -1.8) (layer F.CrtYd) (width 0.05))
    (fp_text user %R (at 0 7.62 360) (layer F.Fab)
      (effects (font (size 1 1) (thickness 0.15)))
    )
    (pad 1 thru_hole rect (at 0 0 270) (size 1.7 1.7) (drill 1) (layers *.Cu *.Mask)
      (net 19 GPIO15))
    (pad 2 thru_hole oval (at 0 2.54 270) (size 1.7 1.7) (drill 1) (layers *.Cu *.Mask)
      (net 20 GPIO13))
    (pad 3 thru_hole oval (at 0 5.08 270) (size 1.7 1.7) (drill 1) (layers *.Cu *.Mask)
      (net 2 GND))
    (pad 4 thru_hole oval (at 0 7.62 270) (size 1.7 1.7) (drill 1) (layers *.Cu *.Mask)
      (net 3 RESET))
    (pad 5 thru_hole oval (at 0 10.16 270) (size 1.7 1.7) (drill 1) (layers *.Cu *.Mask)
      (net 21 GPIO14))
    (pad 6 thru_hole oval (at 0 12.7 270) (size 1.7 1.7) (drill 1) (layers *.Cu *.Mask)
      (net 2 GND))
    (pad 7 thru_hole oval (at 0 15.24 270) (size 1.7 1.7) (drill 1) (layers *.Cu *.Mask)
      (net 22 GPIO12))
    (model ${KISYS3DMOD}/Pin_Headers.3dshapes/Pin_Header_Straight_1x07_Pitch2.54mm.wrl
      (at (xyz 0 0 0))
      (scale (xyz 1 1 1))
      (rotate (xyz 0 0 0))
    )
  )

  (module Resistors_THT:R_Axial_DIN0204_L3.6mm_D1.6mm_P1.90mm_Vertical (layer F.Cu) (tedit 5874F706) (tstamp 5B1AEAD6)
    (at 88.9 76.2 90)
    (descr "Resistor, Axial_DIN0204 series, Axial, Vertical, pin pitch=1.9mm, 0.16666666666666666W = 1/6W, length*diameter=3.6*1.6mm^2, http://cdn-reichelt.de/documents/datenblatt/B400/1_4W%23YAG.pdf")
    (tags "Resistor Axial_DIN0204 series Axial Vertical pin pitch 1.9mm 0.16666666666666666W = 1/6W length 3.6mm diameter 1.6mm")
    (path /5B1ADADF)
    (fp_text reference R1 (at 0.95 -1.86 90) (layer F.SilkS)
      (effects (font (size 1 1) (thickness 0.15)))
    )
    (fp_text value R (at 0.95 1.86 90) (layer F.Fab)
      (effects (font (size 1 1) (thickness 0.15)))
    )
    (fp_circle (center 0 0) (end 0.8 0) (layer F.Fab) (width 0.1))
    (fp_circle (center 0 0) (end 0.86 0) (layer F.SilkS) (width 0.12))
    (fp_line (start 0 0) (end 1.9 0) (layer F.Fab) (width 0.1))
    (fp_line (start 0.86 0) (end 0.9 0) (layer F.SilkS) (width 0.12))
    (fp_line (start -1.15 -1.15) (end -1.15 1.15) (layer F.CrtYd) (width 0.05))
    (fp_line (start -1.15 1.15) (end 2.95 1.15) (layer F.CrtYd) (width 0.05))
    (fp_line (start 2.95 1.15) (end 2.95 -1.15) (layer F.CrtYd) (width 0.05))
    (fp_line (start 2.95 -1.15) (end -1.15 -1.15) (layer F.CrtYd) (width 0.05))
    (pad 1 thru_hole circle (at 0 0 90) (size 1.4 1.4) (drill 0.7) (layers *.Cu *.Mask)
      (net 4 "Net-(D1-Pad1)"))
    (pad 2 thru_hole oval (at 1.9 0 90) (size 1.4 1.4) (drill 0.7) (layers *.Cu *.Mask)
      (net 16 GPIO0))
    (model ${KISYS3DMOD}/Resistors_THT.3dshapes/R_Axial_DIN0204_L3.6mm_D1.6mm_P1.90mm_Vertical.wrl
      (at (xyz 0 0 0))
      (scale (xyz 0.393701 0.393701 0.393701))
      (rotate (xyz 0 0 0))
    )
  )

  (module Resistors_THT:R_Axial_DIN0204_L3.6mm_D1.6mm_P1.90mm_Vertical (layer F.Cu) (tedit 5874F706) (tstamp 5B1AEADC)
    (at 88.9 64.135 90)
    (descr "Resistor, Axial_DIN0204 series, Axial, Vertical, pin pitch=1.9mm, 0.16666666666666666W = 1/6W, length*diameter=3.6*1.6mm^2, http://cdn-reichelt.de/documents/datenblatt/B400/1_4W%23YAG.pdf")
    (tags "Resistor Axial_DIN0204 series Axial Vertical pin pitch 1.9mm 0.16666666666666666W = 1/6W length 3.6mm diameter 1.6mm")
    (path /5B1ADB42)
    (fp_text reference R2 (at 0.95 -1.86 90) (layer F.SilkS)
      (effects (font (size 1 1) (thickness 0.15)))
    )
    (fp_text value R (at 0.95 1.86 90) (layer F.Fab)
      (effects (font (size 1 1) (thickness 0.15)))
    )
    (fp_circle (center 0 0) (end 0.8 0) (layer F.Fab) (width 0.1))
    (fp_circle (center 0 0) (end 0.86 0) (layer F.SilkS) (width 0.12))
    (fp_line (start 0 0) (end 1.9 0) (layer F.Fab) (width 0.1))
    (fp_line (start 0.86 0) (end 0.9 0) (layer F.SilkS) (width 0.12))
    (fp_line (start -1.15 -1.15) (end -1.15 1.15) (layer F.CrtYd) (width 0.05))
    (fp_line (start -1.15 1.15) (end 2.95 1.15) (layer F.CrtYd) (width 0.05))
    (fp_line (start 2.95 1.15) (end 2.95 -1.15) (layer F.CrtYd) (width 0.05))
    (fp_line (start 2.95 -1.15) (end -1.15 -1.15) (layer F.CrtYd) (width 0.05))
    (pad 1 thru_hole circle (at 0 0 90) (size 1.4 1.4) (drill 0.7) (layers *.Cu *.Mask)
      (net 3 RESET))
    (pad 2 thru_hole oval (at 1.9 0 90) (size 1.4 1.4) (drill 0.7) (layers *.Cu *.Mask)
      (net 23 "Net-(R2-Pad2)"))
    (model ${KISYS3DMOD}/Resistors_THT.3dshapes/R_Axial_DIN0204_L3.6mm_D1.6mm_P1.90mm_Vertical.wrl
      (at (xyz 0 0 0))
      (scale (xyz 0.393701 0.393701 0.393701))
      (rotate (xyz 0 0 0))
    )
  )

  (module Resistors_THT:R_Axial_DIN0204_L3.6mm_D1.6mm_P1.90mm_Vertical (layer F.Cu) (tedit 5874F706) (tstamp 5B1AEAE2)
    (at 83.82 88.9 90)
    (descr "Resistor, Axial_DIN0204 series, Axial, Vertical, pin pitch=1.9mm, 0.16666666666666666W = 1/6W, length*diameter=3.6*1.6mm^2, http://cdn-reichelt.de/documents/datenblatt/B400/1_4W%23YAG.pdf")
    (tags "Resistor Axial_DIN0204 series Axial Vertical pin pitch 1.9mm 0.16666666666666666W = 1/6W length 3.6mm diameter 1.6mm")
    (path /5B1ADB7B)
    (fp_text reference R3 (at 0.95 -1.86 90) (layer F.SilkS)
      (effects (font (size 1 1) (thickness 0.15)))
    )
    (fp_text value R (at 0.95 1.86 90) (layer F.Fab)
      (effects (font (size 1 1) (thickness 0.15)))
    )
    (fp_circle (center 0 0) (end 0.8 0) (layer F.Fab) (width 0.1))
    (fp_circle (center 0 0) (end 0.86 0) (layer F.SilkS) (width 0.12))
    (fp_line (start 0 0) (end 1.9 0) (layer F.Fab) (width 0.1))
    (fp_line (start 0.86 0) (end 0.9 0) (layer F.SilkS) (width 0.12))
    (fp_line (start -1.15 -1.15) (end -1.15 1.15) (layer F.CrtYd) (width 0.05))
    (fp_line (start -1.15 1.15) (end 2.95 1.15) (layer F.CrtYd) (width 0.05))
    (fp_line (start 2.95 1.15) (end 2.95 -1.15) (layer F.CrtYd) (width 0.05))
    (fp_line (start 2.95 -1.15) (end -1.15 -1.15) (layer F.CrtYd) (width 0.05))
    (pad 1 thru_hole circle (at 0 0 90) (size 1.4 1.4) (drill 0.7) (layers *.Cu *.Mask)
      (net 3 RESET))
    (pad 2 thru_hole oval (at 1.9 0 90) (size 1.4 1.4) (drill 0.7) (layers *.Cu *.Mask)
      (net 18 GPIO2))
    (model ${KISYS3DMOD}/Resistors_THT.3dshapes/R_Axial_DIN0204_L3.6mm_D1.6mm_P1.90mm_Vertical.wrl
      (at (xyz 0 0 0))
      (scale (xyz 0.393701 0.393701 0.393701))
      (rotate (xyz 0 0 0))
    )
  )

  (module Resistors_THT:R_Axial_DIN0204_L3.6mm_D1.6mm_P1.90mm_Vertical (layer F.Cu) (tedit 5874F706) (tstamp 5B1AEAE8)
    (at 83.82 70.485 90)
    (descr "Resistor, Axial_DIN0204 series, Axial, Vertical, pin pitch=1.9mm, 0.16666666666666666W = 1/6W, length*diameter=3.6*1.6mm^2, http://cdn-reichelt.de/documents/datenblatt/B400/1_4W%23YAG.pdf")
    (tags "Resistor Axial_DIN0204 series Axial Vertical pin pitch 1.9mm 0.16666666666666666W = 1/6W length 3.6mm diameter 1.6mm")
    (path /5B1ADBB1)
    (fp_text reference R4 (at 0.95 -1.86 90) (layer F.SilkS)
      (effects (font (size 1 1) (thickness 0.15)))
    )
    (fp_text value R (at 0.95 1.86 90) (layer F.Fab)
      (effects (font (size 1 1) (thickness 0.15)))
    )
    (fp_circle (center 0 0) (end 0.8 0) (layer F.Fab) (width 0.1))
    (fp_circle (center 0 0) (end 0.86 0) (layer F.SilkS) (width 0.12))
    (fp_line (start 0 0) (end 1.9 0) (layer F.Fab) (width 0.1))
    (fp_line (start 0.86 0) (end 0.9 0) (layer F.SilkS) (width 0.12))
    (fp_line (start -1.15 -1.15) (end -1.15 1.15) (layer F.CrtYd) (width 0.05))
    (fp_line (start -1.15 1.15) (end 2.95 1.15) (layer F.CrtYd) (width 0.05))
    (fp_line (start 2.95 1.15) (end 2.95 -1.15) (layer F.CrtYd) (width 0.05))
    (fp_line (start 2.95 -1.15) (end -1.15 -1.15) (layer F.CrtYd) (width 0.05))
    (pad 1 thru_hole circle (at 0 0 90) (size 1.4 1.4) (drill 0.7) (layers *.Cu *.Mask)
      (net 3 RESET))
    (pad 2 thru_hole oval (at 1.9 0 90) (size 1.4 1.4) (drill 0.7) (layers *.Cu *.Mask)
      (net 24 CH_PD))
    (model ${KISYS3DMOD}/Resistors_THT.3dshapes/R_Axial_DIN0204_L3.6mm_D1.6mm_P1.90mm_Vertical.wrl
      (at (xyz 0 0 0))
      (scale (xyz 0.393701 0.393701 0.393701))
      (rotate (xyz 0 0 0))
    )
  )

  (module Resistors_THT:R_Axial_DIN0204_L3.6mm_D1.6mm_P1.90mm_Vertical (layer F.Cu) (tedit 5874F706) (tstamp 5B1AEAEE)
    (at 83.82 76.2 90)
    (descr "Resistor, Axial_DIN0204 series, Axial, Vertical, pin pitch=1.9mm, 0.16666666666666666W = 1/6W, length*diameter=3.6*1.6mm^2, http://cdn-reichelt.de/documents/datenblatt/B400/1_4W%23YAG.pdf")
    (tags "Resistor Axial_DIN0204 series Axial Vertical pin pitch 1.9mm 0.16666666666666666W = 1/6W length 3.6mm diameter 1.6mm")
    (path /5B1ADBE1)
    (fp_text reference R5 (at 0.95 -1.86 90) (layer F.SilkS)
      (effects (font (size 1 1) (thickness 0.15)))
    )
    (fp_text value R (at 0.95 1.86 90) (layer F.Fab)
      (effects (font (size 1 1) (thickness 0.15)))
    )
    (fp_circle (center 0 0) (end 0.8 0) (layer F.Fab) (width 0.1))
    (fp_circle (center 0 0) (end 0.86 0) (layer F.SilkS) (width 0.12))
    (fp_line (start 0 0) (end 1.9 0) (layer F.Fab) (width 0.1))
    (fp_line (start 0.86 0) (end 0.9 0) (layer F.SilkS) (width 0.12))
    (fp_line (start -1.15 -1.15) (end -1.15 1.15) (layer F.CrtYd) (width 0.05))
    (fp_line (start -1.15 1.15) (end 2.95 1.15) (layer F.CrtYd) (width 0.05))
    (fp_line (start 2.95 1.15) (end 2.95 -1.15) (layer F.CrtYd) (width 0.05))
    (fp_line (start 2.95 -1.15) (end -1.15 -1.15) (layer F.CrtYd) (width 0.05))
    (pad 1 thru_hole circle (at 0 0 90) (size 1.4 1.4) (drill 0.7) (layers *.Cu *.Mask)
      (net 19 GPIO15))
    (pad 2 thru_hole oval (at 1.9 0 90) (size 1.4 1.4) (drill 0.7) (layers *.Cu *.Mask)
      (net 2 GND))
    (model ${KISYS3DMOD}/Resistors_THT.3dshapes/R_Axial_DIN0204_L3.6mm_D1.6mm_P1.90mm_Vertical.wrl
      (at (xyz 0 0 0))
      (scale (xyz 0.393701 0.393701 0.393701))
      (rotate (xyz 0 0 0))
    )
  )

  (module Resistors_THT:R_Axial_DIN0204_L3.6mm_D1.6mm_P1.90mm_Vertical (layer F.Cu) (tedit 5874F706) (tstamp 5B1AEAF4)
    (at 88.9 70.485 90)
    (descr "Resistor, Axial_DIN0204 series, Axial, Vertical, pin pitch=1.9mm, 0.16666666666666666W = 1/6W, length*diameter=3.6*1.6mm^2, http://cdn-reichelt.de/documents/datenblatt/B400/1_4W%23YAG.pdf")
    (tags "Resistor Axial_DIN0204 series Axial Vertical pin pitch 1.9mm 0.16666666666666666W = 1/6W length 3.6mm diameter 1.6mm")
    (path /5B1B1344)
    (fp_text reference R6 (at 0.95 -1.86 90) (layer F.SilkS)
      (effects (font (size 1 1) (thickness 0.15)))
    )
    (fp_text value R (at 0.95 1.86 90) (layer F.Fab)
      (effects (font (size 1 1) (thickness 0.15)))
    )
    (fp_circle (center 0 0) (end 0.8 0) (layer F.Fab) (width 0.1))
    (fp_circle (center 0 0) (end 0.86 0) (layer F.SilkS) (width 0.12))
    (fp_line (start 0 0) (end 1.9 0) (layer F.Fab) (width 0.1))
    (fp_line (start 0.86 0) (end 0.9 0) (layer F.SilkS) (width 0.12))
    (fp_line (start -1.15 -1.15) (end -1.15 1.15) (layer F.CrtYd) (width 0.05))
    (fp_line (start -1.15 1.15) (end 2.95 1.15) (layer F.CrtYd) (width 0.05))
    (fp_line (start 2.95 1.15) (end 2.95 -1.15) (layer F.CrtYd) (width 0.05))
    (fp_line (start 2.95 -1.15) (end -1.15 -1.15) (layer F.CrtYd) (width 0.05))
    (pad 1 thru_hole circle (at 0 0 90) (size 1.4 1.4) (drill 0.7) (layers *.Cu *.Mask)
      (net 3 RESET))
    (pad 2 thru_hole oval (at 1.9 0 90) (size 1.4 1.4) (drill 0.7) (layers *.Cu *.Mask)
      (net 13 GPIO4))
    (model ${KISYS3DMOD}/Resistors_THT.3dshapes/R_Axial_DIN0204_L3.6mm_D1.6mm_P1.90mm_Vertical.wrl
      (at (xyz 0 0 0))
      (scale (xyz 0.393701 0.393701 0.393701))
      (rotate (xyz 0 0 0))
    )
  )

  (module Resistors_THT:R_Axial_DIN0204_L3.6mm_D1.6mm_P1.90mm_Vertical (layer F.Cu) (tedit 5874F706) (tstamp 5B1AEAFA)
    (at 88.265 30.48 180)
    (descr "Resistor, Axial_DIN0204 series, Axial, Vertical, pin pitch=1.9mm, 0.16666666666666666W = 1/6W, length*diameter=3.6*1.6mm^2, http://cdn-reichelt.de/documents/datenblatt/B400/1_4W%23YAG.pdf")
    (tags "Resistor Axial_DIN0204 series Axial Vertical pin pitch 1.9mm 0.16666666666666666W = 1/6W length 3.6mm diameter 1.6mm")
    (path /5B1B134A)
    (fp_text reference R7 (at 0.95 -1.86 180) (layer F.SilkS)
      (effects (font (size 1 1) (thickness 0.15)))
    )
    (fp_text value R (at 0.95 1.86 180) (layer F.Fab)
      (effects (font (size 1 1) (thickness 0.15)))
    )
    (fp_circle (center 0 0) (end 0.8 0) (layer F.Fab) (width 0.1))
    (fp_circle (center 0 0) (end 0.86 0) (layer F.SilkS) (width 0.12))
    (fp_line (start 0 0) (end 1.9 0) (layer F.Fab) (width 0.1))
    (fp_line (start 0.86 0) (end 0.9 0) (layer F.SilkS) (width 0.12))
    (fp_line (start -1.15 -1.15) (end -1.15 1.15) (layer F.CrtYd) (width 0.05))
    (fp_line (start -1.15 1.15) (end 2.95 1.15) (layer F.CrtYd) (width 0.05))
    (fp_line (start 2.95 1.15) (end 2.95 -1.15) (layer F.CrtYd) (width 0.05))
    (fp_line (start 2.95 -1.15) (end -1.15 -1.15) (layer F.CrtYd) (width 0.05))
    (pad 1 thru_hole circle (at 0 0 180) (size 1.4 1.4) (drill 0.7) (layers *.Cu *.Mask)
      (net 3 RESET))
    (pad 2 thru_hole oval (at 1.9 0 180) (size 1.4 1.4) (drill 0.7) (layers *.Cu *.Mask)
      (net 12 GPIO5))
    (model ${KISYS3DMOD}/Resistors_THT.3dshapes/R_Axial_DIN0204_L3.6mm_D1.6mm_P1.90mm_Vertical.wrl
      (at (xyz 0 0 0))
      (scale (xyz 0.393701 0.393701 0.393701))
      (rotate (xyz 0 0 0))
    )
  )

  (module Buttons_Switches_THT:SW_PUSH_6mm (layer F.Cu) (tedit 5923F252) (tstamp 5B1AEB02)
    (at 76.2 55.88 90)
    (descr https://www.omron.com/ecb/products/pdf/en-b3f.pdf)
    (tags "tact sw push 6mm")
    (path /5B1AE04C)
    (fp_text reference SW1 (at 3.25 -2 90) (layer F.SilkS)
      (effects (font (size 1 1) (thickness 0.15)))
    )
    (fp_text value SW_Push (at 3.75 6.7 90) (layer F.Fab)
      (effects (font (size 1 1) (thickness 0.15)))
    )
    (fp_text user %R (at 3.25 2.25 90) (layer F.Fab)
      (effects (font (size 1 1) (thickness 0.15)))
    )
    (fp_line (start 3.25 -0.75) (end 6.25 -0.75) (layer F.Fab) (width 0.1))
    (fp_line (start 6.25 -0.75) (end 6.25 5.25) (layer F.Fab) (width 0.1))
    (fp_line (start 6.25 5.25) (end 0.25 5.25) (layer F.Fab) (width 0.1))
    (fp_line (start 0.25 5.25) (end 0.25 -0.75) (layer F.Fab) (width 0.1))
    (fp_line (start 0.25 -0.75) (end 3.25 -0.75) (layer F.Fab) (width 0.1))
    (fp_line (start 7.75 6) (end 8 6) (layer F.CrtYd) (width 0.05))
    (fp_line (start 8 6) (end 8 5.75) (layer F.CrtYd) (width 0.05))
    (fp_line (start 7.75 -1.5) (end 8 -1.5) (layer F.CrtYd) (width 0.05))
    (fp_line (start 8 -1.5) (end 8 -1.25) (layer F.CrtYd) (width 0.05))
    (fp_line (start -1.5 -1.25) (end -1.5 -1.5) (layer F.CrtYd) (width 0.05))
    (fp_line (start -1.5 -1.5) (end -1.25 -1.5) (layer F.CrtYd) (width 0.05))
    (fp_line (start -1.5 5.75) (end -1.5 6) (layer F.CrtYd) (width 0.05))
    (fp_line (start -1.5 6) (end -1.25 6) (layer F.CrtYd) (width 0.05))
    (fp_line (start -1.25 -1.5) (end 7.75 -1.5) (layer F.CrtYd) (width 0.05))
    (fp_line (start -1.5 5.75) (end -1.5 -1.25) (layer F.CrtYd) (width 0.05))
    (fp_line (start 7.75 6) (end -1.25 6) (layer F.CrtYd) (width 0.05))
    (fp_line (start 8 -1.25) (end 8 5.75) (layer F.CrtYd) (width 0.05))
    (fp_line (start 1 5.5) (end 5.5 5.5) (layer F.SilkS) (width 0.12))
    (fp_line (start -0.25 1.5) (end -0.25 3) (layer F.SilkS) (width 0.12))
    (fp_line (start 5.5 -1) (end 1 -1) (layer F.SilkS) (width 0.12))
    (fp_line (start 6.75 3) (end 6.75 1.5) (layer F.SilkS) (width 0.12))
    (fp_circle (center 3.25 2.25) (end 1.25 2.5) (layer F.Fab) (width 0.1))
    (pad 2 thru_hole circle (at 0 4.5 180) (size 2 2) (drill 1.1) (layers *.Cu *.Mask)
      (net 16 GPIO0))
    (pad 1 thru_hole circle (at 0 0 180) (size 2 2) (drill 1.1) (layers *.Cu *.Mask)
      (net 2 GND))
    (pad 2 thru_hole circle (at 6.5 4.5 180) (size 2 2) (drill 1.1) (layers *.Cu *.Mask)
      (net 16 GPIO0))
    (pad 1 thru_hole circle (at 6.5 0 180) (size 2 2) (drill 1.1) (layers *.Cu *.Mask)
      (net 2 GND))
    (model ${KISYS3DMOD}/Buttons_Switches_THT.3dshapes/SW_PUSH_6mm.wrl
      (at (xyz 0.005 0 0))
      (scale (xyz 0.3937 0.3937 0.3937))
      (rotate (xyz 0 0 0))
    )
  )

  (module Buttons_Switches_THT:SW_PUSH_6mm (layer F.Cu) (tedit 5923F252) (tstamp 5B1AEB0A)
    (at 64.135 55.88 90)
    (descr https://www.omron.com/ecb/products/pdf/en-b3f.pdf)
    (tags "tact sw push 6mm")
    (path /5B1ADF5C)
    (fp_text reference SW2 (at 3.25 -2 90) (layer F.SilkS)
      (effects (font (size 1 1) (thickness 0.15)))
    )
    (fp_text value SW_Push (at 3.75 6.7 90) (layer F.Fab)
      (effects (font (size 1 1) (thickness 0.15)))
    )
    (fp_text user %R (at 3.25 2.25 90) (layer F.Fab)
      (effects (font (size 1 1) (thickness 0.15)))
    )
    (fp_line (start 3.25 -0.75) (end 6.25 -0.75) (layer F.Fab) (width 0.1))
    (fp_line (start 6.25 -0.75) (end 6.25 5.25) (layer F.Fab) (width 0.1))
    (fp_line (start 6.25 5.25) (end 0.25 5.25) (layer F.Fab) (width 0.1))
    (fp_line (start 0.25 5.25) (end 0.25 -0.75) (layer F.Fab) (width 0.1))
    (fp_line (start 0.25 -0.75) (end 3.25 -0.75) (layer F.Fab) (width 0.1))
    (fp_line (start 7.75 6) (end 8 6) (layer F.CrtYd) (width 0.05))
    (fp_line (start 8 6) (end 8 5.75) (layer F.CrtYd) (width 0.05))
    (fp_line (start 7.75 -1.5) (end 8 -1.5) (layer F.CrtYd) (width 0.05))
    (fp_line (start 8 -1.5) (end 8 -1.25) (layer F.CrtYd) (width 0.05))
    (fp_line (start -1.5 -1.25) (end -1.5 -1.5) (layer F.CrtYd) (width 0.05))
    (fp_line (start -1.5 -1.5) (end -1.25 -1.5) (layer F.CrtYd) (width 0.05))
    (fp_line (start -1.5 5.75) (end -1.5 6) (layer F.CrtYd) (width 0.05))
    (fp_line (start -1.5 6) (end -1.25 6) (layer F.CrtYd) (width 0.05))
    (fp_line (start -1.25 -1.5) (end 7.75 -1.5) (layer F.CrtYd) (width 0.05))
    (fp_line (start -1.5 5.75) (end -1.5 -1.25) (layer F.CrtYd) (width 0.05))
    (fp_line (start 7.75 6) (end -1.25 6) (layer F.CrtYd) (width 0.05))
    (fp_line (start 8 -1.25) (end 8 5.75) (layer F.CrtYd) (width 0.05))
    (fp_line (start 1 5.5) (end 5.5 5.5) (layer F.SilkS) (width 0.12))
    (fp_line (start -0.25 1.5) (end -0.25 3) (layer F.SilkS) (width 0.12))
    (fp_line (start 5.5 -1) (end 1 -1) (layer F.SilkS) (width 0.12))
    (fp_line (start 6.75 3) (end 6.75 1.5) (layer F.SilkS) (width 0.12))
    (fp_circle (center 3.25 2.25) (end 1.25 2.5) (layer F.Fab) (width 0.1))
    (pad 2 thru_hole circle (at 0 4.5 180) (size 2 2) (drill 1.1) (layers *.Cu *.Mask)
      (net 23 "Net-(R2-Pad2)"))
    (pad 1 thru_hole circle (at 0 0 180) (size 2 2) (drill 1.1) (layers *.Cu *.Mask)
      (net 2 GND))
    (pad 2 thru_hole circle (at 6.5 4.5 180) (size 2 2) (drill 1.1) (layers *.Cu *.Mask)
      (net 23 "Net-(R2-Pad2)"))
    (pad 1 thru_hole circle (at 6.5 0 180) (size 2 2) (drill 1.1) (layers *.Cu *.Mask)
      (net 2 GND))
    (model ${KISYS3DMOD}/Buttons_Switches_THT.3dshapes/SW_PUSH_6mm.wrl
      (at (xyz 0.005 0 0))
      (scale (xyz 0.3937 0.3937 0.3937))
      (rotate (xyz 0 0 0))
    )
  )

  (module ESP8266:ESP-12 (layer F.Cu) (tedit 55BE5912) (tstamp 5B1AEB1E)
    (at 62.865 69.215)
    (descr "Module, ESP-8266, ESP-12, 16 pad, SMD")
    (tags "Module ESP-8266 ESP8266")
    (path /5B1AD15E)
    (fp_text reference U1 (at 1.5 16.6) (layer F.SilkS)
      (effects (font (size 1 1) (thickness 0.15)))
    )
    (fp_text value ESP-12 (at 6.992 1) (layer F.Fab)
      (effects (font (size 1 1) (thickness 0.15)))
    )
    (fp_line (start -2.25 -0.5) (end -2.25 -8.75) (layer F.CrtYd) (width 0.05))
    (fp_line (start -2.25 -8.75) (end 15.25 -8.75) (layer F.CrtYd) (width 0.05))
    (fp_line (start 15.25 -8.75) (end 16.25 -8.75) (layer F.CrtYd) (width 0.05))
    (fp_line (start 16.25 -8.75) (end 16.25 16) (layer F.CrtYd) (width 0.05))
    (fp_line (start 16.25 16) (end -2.25 16) (layer F.CrtYd) (width 0.05))
    (fp_line (start -2.25 16) (end -2.25 -0.5) (layer F.CrtYd) (width 0.05))
    (fp_line (start -1.016 -8.382) (end 14.986 -8.382) (layer F.CrtYd) (width 0.1524))
    (fp_line (start 14.986 -8.382) (end 14.986 -0.889) (layer F.CrtYd) (width 0.1524))
    (fp_line (start -1.016 -8.382) (end -1.016 -1.016) (layer F.CrtYd) (width 0.1524))
    (fp_line (start -1.016 14.859) (end -1.016 15.621) (layer F.SilkS) (width 0.1524))
    (fp_line (start -1.016 15.621) (end 14.986 15.621) (layer F.SilkS) (width 0.1524))
    (fp_line (start 14.986 15.621) (end 14.986 14.859) (layer F.SilkS) (width 0.1524))
    (fp_line (start 14.992 -8.4) (end -1.008 -2.6) (layer F.CrtYd) (width 0.1524))
    (fp_line (start -1.008 -8.4) (end 14.992 -2.6) (layer F.CrtYd) (width 0.1524))
    (fp_text user "No Copper" (at 6.892 -5.4) (layer F.CrtYd)
      (effects (font (size 1 1) (thickness 0.15)))
    )
    (fp_line (start -1.008 -2.6) (end 14.992 -2.6) (layer F.CrtYd) (width 0.1524))
    (fp_line (start 15 -8.4) (end 15 15.6) (layer F.Fab) (width 0.05))
    (fp_line (start 14.992 15.6) (end -1.008 15.6) (layer F.Fab) (width 0.05))
    (fp_line (start -1.008 15.6) (end -1.008 -8.4) (layer F.Fab) (width 0.05))
    (fp_line (start -1.008 -8.4) (end 14.992 -8.4) (layer F.Fab) (width 0.05))
    (pad 1 thru_hole rect (at 0 0) (size 2.5 1.1) (drill 0.65 (offset -0.7 0)) (layers *.Cu *.Mask F.SilkS)
      (net 3 RESET))
    (pad 2 thru_hole oval (at 0 2) (size 2.5 1.1) (drill 0.65 (offset -0.7 0)) (layers *.Cu *.Mask F.SilkS)
      (net 17 ADC))
    (pad 3 thru_hole oval (at 0 4) (size 2.5 1.1) (drill 0.65 (offset -0.7 0)) (layers *.Cu *.Mask F.SilkS)
      (net 24 CH_PD))
    (pad 4 thru_hole oval (at 0 6) (size 2.5 1.1) (drill 0.65 (offset -0.7 0)) (layers *.Cu *.Mask F.SilkS)
      (net 14 GPIO16))
    (pad 5 thru_hole oval (at 0 8) (size 2.5 1.1) (drill 0.65 (offset -0.7 0)) (layers *.Cu *.Mask F.SilkS)
      (net 21 GPIO14))
    (pad 6 thru_hole oval (at 0 10) (size 2.5 1.1) (drill 0.65 (offset -0.7 0)) (layers *.Cu *.Mask F.SilkS)
      (net 22 GPIO12))
    (pad 7 thru_hole oval (at 0 12) (size 2.5 1.1) (drill 0.65 (offset -0.7 0)) (layers *.Cu *.Mask F.SilkS)
      (net 20 GPIO13))
    (pad 8 thru_hole oval (at 0 14) (size 2.5 1.1) (drill 0.65 (offset -0.7 0)) (layers *.Cu *.Mask F.SilkS)
      (net 3 RESET))
    (pad 9 thru_hole oval (at 14 14) (size 2.5 1.1) (drill 0.65 (offset 0.7 0)) (layers *.Cu *.Mask F.SilkS)
      (net 2 GND))
    (pad 10 thru_hole oval (at 14 12) (size 2.5 1.1) (drill 0.65 (offset 0.6 0)) (layers *.Cu *.Mask F.SilkS)
      (net 19 GPIO15))
    (pad 11 thru_hole oval (at 14 10) (size 2.5 1.1) (drill 0.65 (offset 0.7 0)) (layers *.Cu *.Mask F.SilkS)
      (net 18 GPIO2))
    (pad 12 thru_hole oval (at 14 8) (size 2.5 1.1) (drill 0.65 (offset 0.7 0)) (layers *.Cu *.Mask F.SilkS)
      (net 16 GPIO0))
    (pad 13 thru_hole oval (at 14 6) (size 2.5 1.1) (drill 0.65 (offset 0.7 0)) (layers *.Cu *.Mask F.SilkS)
      (net 13 GPIO4))
    (pad 14 thru_hole oval (at 14 4) (size 2.5 1.1) (drill 0.65 (offset 0.7 0)) (layers *.Cu *.Mask F.SilkS)
      (net 12 GPIO5))
    (pad 15 thru_hole oval (at 14 2) (size 2.5 1.1) (drill 0.65 (offset 0.7 0)) (layers *.Cu *.Mask F.SilkS)
      (net 8 RXD))
    (pad 16 thru_hole oval (at 14 0) (size 2.5 1.1) (drill 0.65 (offset 0.7 0)) (layers *.Cu *.Mask F.SilkS)
      (net 10 TXD))
    (model ${ESPLIB}/ESP8266.3dshapes/ESP-12.wrl
      (at (xyz 0 0 0))
      (scale (xyz 0.3937 0.3937 0.3937))
      (rotate (xyz 0 0 0))
    )
  )

  (module Capacitors_THT:C_Disc_D3.0mm_W1.6mm_P2.50mm (layer F.Cu) (tedit 597BC7C2) (tstamp 5B1AECEF)
    (at 88.9 34.925 180)
    (descr "C, Disc series, Radial, pin pitch=2.50mm, , diameter*width=3.0*1.6mm^2, Capacitor, http://www.vishay.com/docs/45233/krseries.pdf")
    (tags "C Disc series Radial pin pitch 2.50mm  diameter 3.0mm width 1.6mm Capacitor")
    (path /5B1AF607)
    (fp_text reference C1 (at 1.25 -2.11 180) (layer F.SilkS)
      (effects (font (size 1 1) (thickness 0.15)))
    )
    (fp_text value C (at 1.25 2.11 180) (layer F.Fab)
      (effects (font (size 1 1) (thickness 0.15)))
    )
    (fp_line (start -0.25 -0.8) (end -0.25 0.8) (layer F.Fab) (width 0.1))
    (fp_line (start -0.25 0.8) (end 2.75 0.8) (layer F.Fab) (width 0.1))
    (fp_line (start 2.75 0.8) (end 2.75 -0.8) (layer F.Fab) (width 0.1))
    (fp_line (start 2.75 -0.8) (end -0.25 -0.8) (layer F.Fab) (width 0.1))
    (fp_line (start 0.663 -0.861) (end 1.837 -0.861) (layer F.SilkS) (width 0.12))
    (fp_line (start 0.663 0.861) (end 1.837 0.861) (layer F.SilkS) (width 0.12))
    (fp_line (start -1.05 -1.15) (end -1.05 1.15) (layer F.CrtYd) (width 0.05))
    (fp_line (start -1.05 1.15) (end 3.55 1.15) (layer F.CrtYd) (width 0.05))
    (fp_line (start 3.55 1.15) (end 3.55 -1.15) (layer F.CrtYd) (width 0.05))
    (fp_line (start 3.55 -1.15) (end -1.05 -1.15) (layer F.CrtYd) (width 0.05))
    (fp_text user %R (at 1.25 0 180) (layer F.Fab)
      (effects (font (size 1 1) (thickness 0.15)))
    )
    (pad 1 thru_hole circle (at 0 0 180) (size 1.6 1.6) (drill 0.8) (layers *.Cu *.Mask)
      (net 1 "Net-(C1-Pad1)"))
    (pad 2 thru_hole circle (at 2.5 0 180) (size 1.6 1.6) (drill 0.8) (layers *.Cu *.Mask)
      (net 2 GND))
    (model ${KISYS3DMOD}/Capacitors_THT.3dshapes/C_Disc_D3.0mm_W1.6mm_P2.50mm.wrl
      (at (xyz 0 0 0))
      (scale (xyz 1 1 1))
      (rotate (xyz 0 0 0))
    )
  )

  (module Capacitors_THT:C_Disc_D3.0mm_W1.6mm_P2.50mm (layer F.Cu) (tedit 597BC7C2) (tstamp 5B1AECF4)
    (at 88.9 88.9 90)
    (descr "C, Disc series, Radial, pin pitch=2.50mm, , diameter*width=3.0*1.6mm^2, Capacitor, http://www.vishay.com/docs/45233/krseries.pdf")
    (tags "C Disc series Radial pin pitch 2.50mm  diameter 3.0mm width 1.6mm Capacitor")
    (path /5B1AF71E)
    (fp_text reference C2 (at 1.25 -2.11 90) (layer F.SilkS)
      (effects (font (size 1 1) (thickness 0.15)))
    )
    (fp_text value C (at 1.25 2.11 90) (layer F.Fab)
      (effects (font (size 1 1) (thickness 0.15)))
    )
    (fp_line (start -0.25 -0.8) (end -0.25 0.8) (layer F.Fab) (width 0.1))
    (fp_line (start -0.25 0.8) (end 2.75 0.8) (layer F.Fab) (width 0.1))
    (fp_line (start 2.75 0.8) (end 2.75 -0.8) (layer F.Fab) (width 0.1))
    (fp_line (start 2.75 -0.8) (end -0.25 -0.8) (layer F.Fab) (width 0.1))
    (fp_line (start 0.663 -0.861) (end 1.837 -0.861) (layer F.SilkS) (width 0.12))
    (fp_line (start 0.663 0.861) (end 1.837 0.861) (layer F.SilkS) (width 0.12))
    (fp_line (start -1.05 -1.15) (end -1.05 1.15) (layer F.CrtYd) (width 0.05))
    (fp_line (start -1.05 1.15) (end 3.55 1.15) (layer F.CrtYd) (width 0.05))
    (fp_line (start 3.55 1.15) (end 3.55 -1.15) (layer F.CrtYd) (width 0.05))
    (fp_line (start 3.55 -1.15) (end -1.05 -1.15) (layer F.CrtYd) (width 0.05))
    (fp_text user %R (at 1.25 0 90) (layer F.Fab)
      (effects (font (size 1 1) (thickness 0.15)))
    )
    (pad 1 thru_hole circle (at 0 0 90) (size 1.6 1.6) (drill 0.8) (layers *.Cu *.Mask)
      (net 3 RESET))
    (pad 2 thru_hole circle (at 2.5 0 90) (size 1.6 1.6) (drill 0.8) (layers *.Cu *.Mask)
      (net 2 GND))
    (model ${KISYS3DMOD}/Capacitors_THT.3dshapes/C_Disc_D3.0mm_W1.6mm_P2.50mm.wrl
      (at (xyz 0 0 0))
      (scale (xyz 1 1 1))
      (rotate (xyz 0 0 0))
    )
  )

  (module Diodes_THT:D_A-405_P2.54mm_Vertical_AnodeUp (layer F.Cu) (tedit 5921392E) (tstamp 5B1AECF9)
    (at 86.36 40.64)
    (descr "D, A-405 series, Axial, Vertical, pin pitch=2.54mm, , length*diameter=5.2*2.7mm^2, , http://www.diodes.com/_files/packages/A-405.pdf")
    (tags "D A-405 series Axial Vertical pin pitch 2.54mm  length 5.2mm diameter 2.7mm")
    (path /5B1AF3A3)
    (fp_text reference D2 (at 1.27 -2.41) (layer F.SilkS)
      (effects (font (size 1 1) (thickness 0.15)))
    )
    (fp_text value D_Schottky (at 1.27 3.299) (layer F.Fab)
      (effects (font (size 1 1) (thickness 0.15)))
    )
    (fp_text user K (at -2.11 0) (layer F.Fab)
      (effects (font (size 1 1) (thickness 0.15)))
    )
    (fp_text user %R (at 1.27 0) (layer F.Fab)
      (effects (font (size 1 1) (thickness 0.15)))
    )
    (fp_line (start 0 0) (end 2.54 0) (layer F.Fab) (width 0.1))
    (fp_line (start 1.397 1.08) (end 1.397 1.969) (layer F.SilkS) (width 0.12))
    (fp_line (start 1.397 1.5245) (end 1.989667 1.08) (layer F.SilkS) (width 0.12))
    (fp_line (start 1.989667 1.08) (end 1.989667 1.969) (layer F.SilkS) (width 0.12))
    (fp_line (start 1.989667 1.969) (end 1.397 1.5245) (layer F.SilkS) (width 0.12))
    (fp_line (start -1.7 -1.7) (end -1.7 1.7) (layer F.CrtYd) (width 0.05))
    (fp_line (start -1.7 1.7) (end 3.75 1.7) (layer F.CrtYd) (width 0.05))
    (fp_line (start 3.75 1.7) (end 3.75 -1.7) (layer F.CrtYd) (width 0.05))
    (fp_line (start 3.75 -1.7) (end -1.7 -1.7) (layer F.CrtYd) (width 0.05))
    (fp_circle (center 0 0) (end 1.35 0) (layer F.Fab) (width 0.1))
    (fp_arc (start 0 0) (end 1.059811 -0.9) (angle -277.5) (layer F.SilkS) (width 0.12))
    (pad 1 thru_hole rect (at 0 0) (size 1.8 1.8) (drill 0.9) (layers *.Cu *.Mask)
      (net 5 VIN))
    (pad 2 thru_hole oval (at 2.54 0) (size 1.8 1.8) (drill 0.9) (layers *.Cu *.Mask)
      (net 1 "Net-(C1-Pad1)"))
    (model ${KISYS3DMOD}/Diodes_THT.3dshapes/D_A-405_P2.54mm_Vertical_AnodeUp.wrl
      (at (xyz 0 0 0))
      (scale (xyz 0.393701 0.393701 0.393701))
      (rotate (xyz 0 0 0))
    )
  )

  (module Diodes_THT:D_A-405_P2.54mm_Vertical_AnodeUp (layer F.Cu) (tedit 5921392E) (tstamp 5B1AECFE)
    (at 83.82 82.55 90)
    (descr "D, A-405 series, Axial, Vertical, pin pitch=2.54mm, , length*diameter=5.2*2.7mm^2, , http://www.diodes.com/_files/packages/A-405.pdf")
    (tags "D A-405 series Axial Vertical pin pitch 2.54mm  length 5.2mm diameter 2.7mm")
    (path /5B1AE218)
    (fp_text reference D3 (at 1.27 -2.41 90) (layer F.SilkS)
      (effects (font (size 1 1) (thickness 0.15)))
    )
    (fp_text value D (at 1.27 3.299 90) (layer F.Fab)
      (effects (font (size 1 1) (thickness 0.15)))
    )
    (fp_text user K (at -2.11 0 90) (layer F.Fab)
      (effects (font (size 1 1) (thickness 0.15)))
    )
    (fp_text user %R (at 1.27 0 90) (layer F.Fab)
      (effects (font (size 1 1) (thickness 0.15)))
    )
    (fp_line (start 0 0) (end 2.54 0) (layer F.Fab) (width 0.1))
    (fp_line (start 1.397 1.08) (end 1.397 1.969) (layer F.SilkS) (width 0.12))
    (fp_line (start 1.397 1.5245) (end 1.989667 1.08) (layer F.SilkS) (width 0.12))
    (fp_line (start 1.989667 1.08) (end 1.989667 1.969) (layer F.SilkS) (width 0.12))
    (fp_line (start 1.989667 1.969) (end 1.397 1.5245) (layer F.SilkS) (width 0.12))
    (fp_line (start -1.7 -1.7) (end -1.7 1.7) (layer F.CrtYd) (width 0.05))
    (fp_line (start -1.7 1.7) (end 3.75 1.7) (layer F.CrtYd) (width 0.05))
    (fp_line (start 3.75 1.7) (end 3.75 -1.7) (layer F.CrtYd) (width 0.05))
    (fp_line (start 3.75 -1.7) (end -1.7 -1.7) (layer F.CrtYd) (width 0.05))
    (fp_circle (center 0 0) (end 1.35 0) (layer F.Fab) (width 0.1))
    (fp_arc (start 0 0) (end 1.059811 -0.9) (angle -277.5) (layer F.SilkS) (width 0.12))
    (pad 1 thru_hole rect (at 0 0 90) (size 1.8 1.8) (drill 0.9) (layers *.Cu *.Mask)
      (net 6 RESET_5V))
    (pad 2 thru_hole oval (at 2.54 0 90) (size 1.8 1.8) (drill 0.9) (layers *.Cu *.Mask)
      (net 3 RESET))
    (model ${KISYS3DMOD}/Diodes_THT.3dshapes/D_A-405_P2.54mm_Vertical_AnodeUp.wrl
      (at (xyz 0 0 0))
      (scale (xyz 0.393701 0.393701 0.393701))
      (rotate (xyz 0 0 0))
    )
  )

  (module Diodes_THT:D_A-405_P2.54mm_Vertical_AnodeUp (layer F.Cu) (tedit 5921392E) (tstamp 5B1AED03)
    (at 88.9 82.55 90)
    (descr "D, A-405 series, Axial, Vertical, pin pitch=2.54mm, , length*diameter=5.2*2.7mm^2, , http://www.diodes.com/_files/packages/A-405.pdf")
    (tags "D A-405 series Axial Vertical pin pitch 2.54mm  length 5.2mm diameter 2.7mm")
    (path /5B1AE281)
    (fp_text reference D4 (at 1.27 -2.41 90) (layer F.SilkS)
      (effects (font (size 1 1) (thickness 0.15)))
    )
    (fp_text value D (at 1.27 3.299 90) (layer F.Fab)
      (effects (font (size 1 1) (thickness 0.15)))
    )
    (fp_text user K (at -2.11 0 90) (layer F.Fab)
      (effects (font (size 1 1) (thickness 0.15)))
    )
    (fp_text user %R (at 1.27 0 90) (layer F.Fab)
      (effects (font (size 1 1) (thickness 0.15)))
    )
    (fp_line (start 0 0) (end 2.54 0) (layer F.Fab) (width 0.1))
    (fp_line (start 1.397 1.08) (end 1.397 1.969) (layer F.SilkS) (width 0.12))
    (fp_line (start 1.397 1.5245) (end 1.989667 1.08) (layer F.SilkS) (width 0.12))
    (fp_line (start 1.989667 1.08) (end 1.989667 1.969) (layer F.SilkS) (width 0.12))
    (fp_line (start 1.989667 1.969) (end 1.397 1.5245) (layer F.SilkS) (width 0.12))
    (fp_line (start -1.7 -1.7) (end -1.7 1.7) (layer F.CrtYd) (width 0.05))
    (fp_line (start -1.7 1.7) (end 3.75 1.7) (layer F.CrtYd) (width 0.05))
    (fp_line (start 3.75 1.7) (end 3.75 -1.7) (layer F.CrtYd) (width 0.05))
    (fp_line (start 3.75 -1.7) (end -1.7 -1.7) (layer F.CrtYd) (width 0.05))
    (fp_circle (center 0 0) (end 1.35 0) (layer F.Fab) (width 0.1))
    (fp_arc (start 0 0) (end 1.059811 -0.9) (angle -277.5) (layer F.SilkS) (width 0.12))
    (pad 1 thru_hole rect (at 0 0 90) (size 1.8 1.8) (drill 0.9) (layers *.Cu *.Mask)
      (net 7 RXD_5V))
    (pad 2 thru_hole oval (at 2.54 0 90) (size 1.8 1.8) (drill 0.9) (layers *.Cu *.Mask)
      (net 8 RXD))
    (model ${KISYS3DMOD}/Diodes_THT.3dshapes/D_A-405_P2.54mm_Vertical_AnodeUp.wrl
      (at (xyz 0 0 0))
      (scale (xyz 0.393701 0.393701 0.393701))
      (rotate (xyz 0 0 0))
    )
  )

  (gr_line (start 46.99 92.71) (end 46.99 27.305) (angle 90) (layer Edge.Cuts) (width 0.15))
  (gr_line (start 91.44 92.71) (end 46.99 92.71) (angle 90) (layer Edge.Cuts) (width 0.15))
  (gr_line (start 91.44 27.305) (end 91.44 92.71) (angle 90) (layer Edge.Cuts) (width 0.15))
  (gr_line (start 46.99 27.305) (end 91.44 27.305) (angle 90) (layer Edge.Cuts) (width 0.15))

)
